(kicad_sch (version 20211123) (generator eeschema)

  (uuid 4e1ae6a3-3d50-4d39-abce-02aa7c1d7408)

  (paper "A4")

  (lib_symbols
    (symbol "Device:R" (pin_numbers hide) (pin_names (offset 0)) (in_bom yes) (on_board yes)
      (property "Reference" "R" (id 0) (at 2.032 0 90)
        (effects (font (size 1.27 1.27)))
      )
      (property "Value" "R" (id 1) (at 0 0 90)
        (effects (font (size 1.27 1.27)))
      )
      (property "Footprint" "" (id 2) (at -1.778 0 90)
        (effects (font (size 1.27 1.27)) hide)
      )
      (property "Datasheet" "~" (id 3) (at 0 0 0)
        (effects (font (size 1.27 1.27)) hide)
      )
      (property "ki_keywords" "R res resistor" (id 4) (at 0 0 0)
        (effects (font (size 1.27 1.27)) hide)
      )
      (property "ki_description" "Resistor" (id 5) (at 0 0 0)
        (effects (font (size 1.27 1.27)) hide)
      )
      (property "ki_fp_filters" "R_*" (id 6) (at 0 0 0)
        (effects (font (size 1.27 1.27)) hide)
      )
      (symbol "R_0_1"
        (rectangle (start -1.016 -2.54) (end 1.016 2.54)
          (stroke (width 0.254) (type default) (color 0 0 0 0))
          (fill (type none))
        )
      )
      (symbol "R_1_1"
        (pin passive line (at 0 3.81 270) (length 1.27)
          (name "~" (effects (font (size 1.27 1.27))))
          (number "1" (effects (font (size 1.27 1.27))))
        )
        (pin passive line (at 0 -3.81 90) (length 1.27)
          (name "~" (effects (font (size 1.27 1.27))))
          (number "2" (effects (font (size 1.27 1.27))))
        )
      )
    )
    (symbol "Jumper:SolderJumper_2_Bridged" (pin_names (offset 0) hide) (in_bom yes) (on_board yes)
      (property "Reference" "JP" (id 0) (at 0 2.032 0)
        (effects (font (size 1.27 1.27)))
      )
      (property "Value" "SolderJumper_2_Bridged" (id 1) (at 0 -2.54 0)
        (effects (font (size 1.27 1.27)))
      )
      (property "Footprint" "" (id 2) (at 0 0 0)
        (effects (font (size 1.27 1.27)) hide)
      )
      (property "Datasheet" "~" (id 3) (at 0 0 0)
        (effects (font (size 1.27 1.27)) hide)
      )
      (property "ki_keywords" "solder jumper SPST" (id 4) (at 0 0 0)
        (effects (font (size 1.27 1.27)) hide)
      )
      (property "ki_description" "Solder Jumper, 2-pole, closed/bridged" (id 5) (at 0 0 0)
        (effects (font (size 1.27 1.27)) hide)
      )
      (property "ki_fp_filters" "SolderJumper*Bridged*" (id 6) (at 0 0 0)
        (effects (font (size 1.27 1.27)) hide)
      )
      (symbol "SolderJumper_2_Bridged_0_1"
        (rectangle (start -0.508 0.508) (end 0.508 -0.508)
          (stroke (width 0) (type default) (color 0 0 0 0))
          (fill (type outline))
        )
        (arc (start -0.254 1.016) (mid -1.27 0) (end -0.254 -1.016)
          (stroke (width 0) (type default) (color 0 0 0 0))
          (fill (type none))
        )
        (arc (start -0.254 1.016) (mid -1.27 0) (end -0.254 -1.016)
          (stroke (width 0) (type default) (color 0 0 0 0))
          (fill (type outline))
        )
        (polyline
          (pts
            (xy -0.254 1.016)
            (xy -0.254 -1.016)
          )
          (stroke (width 0) (type default) (color 0 0 0 0))
          (fill (type none))
        )
        (polyline
          (pts
            (xy 0.254 1.016)
            (xy 0.254 -1.016)
          )
          (stroke (width 0) (type default) (color 0 0 0 0))
          (fill (type none))
        )
        (arc (start 0.254 -1.016) (mid 1.27 0) (end 0.254 1.016)
          (stroke (width 0) (type default) (color 0 0 0 0))
          (fill (type none))
        )
        (arc (start 0.254 -1.016) (mid 1.27 0) (end 0.254 1.016)
          (stroke (width 0) (type default) (color 0 0 0 0))
          (fill (type outline))
        )
      )
      (symbol "SolderJumper_2_Bridged_1_1"
        (pin passive line (at -3.81 0 0) (length 2.54)
          (name "A" (effects (font (size 1.27 1.27))))
          (number "1" (effects (font (size 1.27 1.27))))
        )
        (pin passive line (at 3.81 0 180) (length 2.54)
          (name "B" (effects (font (size 1.27 1.27))))
          (number "2" (effects (font (size 1.27 1.27))))
        )
      )
    )
    (symbol "Jumper:SolderJumper_2_Open" (pin_names (offset 0) hide) (in_bom yes) (on_board yes)
      (property "Reference" "JP" (id 0) (at 0 2.032 0)
        (effects (font (size 1.27 1.27)))
      )
      (property "Value" "SolderJumper_2_Open" (id 1) (at 0 -2.54 0)
        (effects (font (size 1.27 1.27)))
      )
      (property "Footprint" "" (id 2) (at 0 0 0)
        (effects (font (size 1.27 1.27)) hide)
      )
      (property "Datasheet" "~" (id 3) (at 0 0 0)
        (effects (font (size 1.27 1.27)) hide)
      )
      (property "ki_keywords" "solder jumper SPST" (id 4) (at 0 0 0)
        (effects (font (size 1.27 1.27)) hide)
      )
      (property "ki_description" "Solder Jumper, 2-pole, open" (id 5) (at 0 0 0)
        (effects (font (size 1.27 1.27)) hide)
      )
      (property "ki_fp_filters" "SolderJumper*Open*" (id 6) (at 0 0 0)
        (effects (font (size 1.27 1.27)) hide)
      )
      (symbol "SolderJumper_2_Open_0_1"
        (arc (start -0.254 1.016) (mid -1.27 0) (end -0.254 -1.016)
          (stroke (width 0) (type default) (color 0 0 0 0))
          (fill (type none))
        )
        (arc (start -0.254 1.016) (mid -1.27 0) (end -0.254 -1.016)
          (stroke (width 0) (type default) (color 0 0 0 0))
          (fill (type outline))
        )
        (polyline
          (pts
            (xy -0.254 1.016)
            (xy -0.254 -1.016)
          )
          (stroke (width 0) (type default) (color 0 0 0 0))
          (fill (type none))
        )
        (polyline
          (pts
            (xy 0.254 1.016)
            (xy 0.254 -1.016)
          )
          (stroke (width 0) (type default) (color 0 0 0 0))
          (fill (type none))
        )
        (arc (start 0.254 -1.016) (mid 1.27 0) (end 0.254 1.016)
          (stroke (width 0) (type default) (color 0 0 0 0))
          (fill (type none))
        )
        (arc (start 0.254 -1.016) (mid 1.27 0) (end 0.254 1.016)
          (stroke (width 0) (type default) (color 0 0 0 0))
          (fill (type outline))
        )
      )
      (symbol "SolderJumper_2_Open_1_1"
        (pin passive line (at -3.81 0 0) (length 2.54)
          (name "A" (effects (font (size 1.27 1.27))))
          (number "1" (effects (font (size 1.27 1.27))))
        )
        (pin passive line (at 3.81 0 180) (length 2.54)
          (name "B" (effects (font (size 1.27 1.27))))
          (number "2" (effects (font (size 1.27 1.27))))
        )
      )
    )
    (symbol "Transistor_BJT:BC847" (pin_names (offset 0) hide) (in_bom yes) (on_board yes)
      (property "Reference" "Q" (id 0) (at 5.08 1.905 0)
        (effects (font (size 1.27 1.27)) (justify left))
      )
      (property "Value" "BC847" (id 1) (at 5.08 0 0)
        (effects (font (size 1.27 1.27)) (justify left))
      )
      (property "Footprint" "Package_TO_SOT_SMD:SOT-23" (id 2) (at 5.08 -1.905 0)
        (effects (font (size 1.27 1.27) italic) (justify left) hide)
      )
      (property "Datasheet" "http://www.infineon.com/dgdl/Infineon-BC847SERIES_BC848SERIES_BC849SERIES_BC850SERIES-DS-v01_01-en.pdf?fileId=db3a304314dca389011541d4630a1657" (id 3) (at 0 0 0)
        (effects (font (size 1.27 1.27)) (justify left) hide)
      )
      (property "ki_keywords" "NPN Small Signal Transistor" (id 4) (at 0 0 0)
        (effects (font (size 1.27 1.27)) hide)
      )
      (property "ki_description" "0.1A Ic, 45V Vce, NPN Transistor, SOT-23" (id 5) (at 0 0 0)
        (effects (font (size 1.27 1.27)) hide)
      )
      (property "ki_fp_filters" "SOT?23*" (id 6) (at 0 0 0)
        (effects (font (size 1.27 1.27)) hide)
      )
      (symbol "BC847_0_1"
        (polyline
          (pts
            (xy 0.635 0.635)
            (xy 2.54 2.54)
          )
          (stroke (width 0) (type default) (color 0 0 0 0))
          (fill (type none))
        )
        (polyline
          (pts
            (xy 0.635 -0.635)
            (xy 2.54 -2.54)
            (xy 2.54 -2.54)
          )
          (stroke (width 0) (type default) (color 0 0 0 0))
          (fill (type none))
        )
        (polyline
          (pts
            (xy 0.635 1.905)
            (xy 0.635 -1.905)
            (xy 0.635 -1.905)
          )
          (stroke (width 0.508) (type default) (color 0 0 0 0))
          (fill (type none))
        )
        (polyline
          (pts
            (xy 1.27 -1.778)
            (xy 1.778 -1.27)
            (xy 2.286 -2.286)
            (xy 1.27 -1.778)
            (xy 1.27 -1.778)
          )
          (stroke (width 0) (type default) (color 0 0 0 0))
          (fill (type outline))
        )
        (circle (center 1.27 0) (radius 2.8194)
          (stroke (width 0.254) (type default) (color 0 0 0 0))
          (fill (type none))
        )
      )
      (symbol "BC847_1_1"
        (pin input line (at -5.08 0 0) (length 5.715)
          (name "B" (effects (font (size 1.27 1.27))))
          (number "1" (effects (font (size 1.27 1.27))))
        )
        (pin passive line (at 2.54 -5.08 90) (length 2.54)
          (name "E" (effects (font (size 1.27 1.27))))
          (number "2" (effects (font (size 1.27 1.27))))
        )
        (pin passive line (at 2.54 5.08 270) (length 2.54)
          (name "C" (effects (font (size 1.27 1.27))))
          (number "3" (effects (font (size 1.27 1.27))))
        )
      )
    )
    (symbol "awesome:RS232-Debug" (in_bom yes) (on_board yes)
      (property "Reference" "U" (id 0) (at 0 12.7 0)
        (effects (font (size 1.27 1.27)))
      )
      (property "Value" "RS232-Debug" (id 1) (at 0 -12.7 0)
        (effects (font (size 1.27 1.27)))
      )
      (property "Footprint" "awesome:RS232-Debug" (id 2) (at -1.27 -6.35 0)
        (effects (font (size 1.27 1.27)) hide)
      )
      (property "Datasheet" "" (id 3) (at -1.27 -6.35 0)
        (effects (font (size 1.27 1.27)) hide)
      )
      (symbol "RS232-Debug_0_1"
        (rectangle (start -8.89 11.43) (end 8.89 -11.43)
          (stroke (width 0) (type default) (color 0 0 0 0))
          (fill (type background))
        )
      )
      (symbol "RS232-Debug_1_1"
        (pin input line (at -11.43 10.16 0) (length 2.54)
          (name "PWREN" (effects (font (size 1.27 1.27))))
          (number "1" (effects (font (size 1.27 1.27))))
        )
        (pin input line (at 11.43 -10.16 180) (length 2.54)
          (name "TXD" (effects (font (size 1.27 1.27))))
          (number "10" (effects (font (size 1.27 1.27))))
        )
        (pin input line (at 11.43 -7.62 180) (length 2.54)
          (name "DTR" (effects (font (size 1.27 1.27))))
          (number "11" (effects (font (size 1.27 1.27))))
        )
        (pin input line (at 11.43 -5.08 180) (length 2.54)
          (name "RTS" (effects (font (size 1.27 1.27))))
          (number "12" (effects (font (size 1.27 1.27))))
        )
        (pin input line (at 11.43 -2.54 180) (length 2.54)
          (name "VCC" (effects (font (size 1.27 1.27))))
          (number "13" (effects (font (size 1.27 1.27))))
        )
        (pin input line (at 11.43 0 180) (length 2.54)
          (name "RXD" (effects (font (size 1.27 1.27))))
          (number "14" (effects (font (size 1.27 1.27))))
        )
        (pin unspecified line (at 11.43 2.54 180) (length 2.54)
          (name "R" (effects (font (size 1.27 1.27))))
          (number "15" (effects (font (size 1.27 1.27))))
        )
        (pin input line (at 11.43 5.08 180) (length 2.54)
          (name "GND" (effects (font (size 1.27 1.27))))
          (number "16" (effects (font (size 1.27 1.27))))
        )
        (pin input line (at 11.43 7.62 180) (length 2.54)
          (name "RSD" (effects (font (size 1.27 1.27))))
          (number "17" (effects (font (size 1.27 1.27))))
        )
        (pin input line (at 11.43 10.16 180) (length 2.54)
          (name "DCD" (effects (font (size 1.27 1.27))))
          (number "18" (effects (font (size 1.27 1.27))))
        )
        (pin input line (at -11.43 7.62 0) (length 2.54)
          (name "TEN" (effects (font (size 1.27 1.27))))
          (number "2" (effects (font (size 1.27 1.27))))
        )
        (pin input line (at -11.43 5.08 0) (length 2.54)
          (name "SLEEP" (effects (font (size 1.27 1.27))))
          (number "3" (effects (font (size 1.27 1.27))))
        )
        (pin input line (at -11.43 2.54 0) (length 2.54)
          (name "CTS" (effects (font (size 1.27 1.27))))
          (number "4" (effects (font (size 1.27 1.27))))
        )
        (pin input line (at -11.43 0 0) (length 2.54)
          (name "3V3" (effects (font (size 1.27 1.27))))
          (number "5" (effects (font (size 1.27 1.27))))
        )
        (pin input line (at -11.43 -2.54 0) (length 2.54)
          (name "5V" (effects (font (size 1.27 1.27))))
          (number "6" (effects (font (size 1.27 1.27))))
        )
        (pin input line (at -11.43 -5.08 0) (length 2.54)
          (name "RXL" (effects (font (size 1.27 1.27))))
          (number "7" (effects (font (size 1.27 1.27))))
        )
        (pin input line (at -11.43 -7.62 0) (length 2.54)
          (name "TXL" (effects (font (size 1.27 1.27))))
          (number "8" (effects (font (size 1.27 1.27))))
        )
        (pin input line (at -11.43 -10.16 0) (length 2.54)
          (name "GND" (effects (font (size 1.27 1.27))))
          (number "9" (effects (font (size 1.27 1.27))))
        )
      )
    )
    (symbol "awesome:debug6-MicroMatch2X03" (pin_names (offset 1.016)) (in_bom yes) (on_board yes)
      (property "Reference" "J" (id 0) (at 0 0 0)
        (effects (font (size 1.27 1.27)))
      )
      (property "Value" "debug6-MicroMatch2X03" (id 1) (at 0 -8.89 0)
        (effects (font (size 1.27 1.27)))
      )
      (property "Footprint" "awesome:02x03MicroMatch" (id 2) (at 1.27 8.89 0)
        (effects (font (size 1.27 1.27)) hide)
      )
      (property "Datasheet" "" (id 3) (at 0 0 0)
        (effects (font (size 1.27 1.27)) hide)
      )
      (symbol "debug6-MicroMatch2X03_0_1"
        (rectangle (start -3.81 7.62) (end 3.81 -7.62)
          (stroke (width 0) (type default) (color 0 0 0 0))
          (fill (type background))
        )
      )
      (symbol "debug6-MicroMatch2X03_1_1"
        (pin input line (at 6.35 6.35 180) (length 2.54)
          (name "EN" (effects (font (size 1.27 1.27))))
          (number "1" (effects (font (size 1.27 1.27))))
        )
        (pin input line (at 6.35 3.81 180) (length 2.54)
          (name "GND" (effects (font (size 1.27 1.27))))
          (number "2" (effects (font (size 1.27 1.27))))
        )
        (pin input line (at 6.35 1.27 180) (length 2.54)
          (name "3V3" (effects (font (size 1.27 1.27))))
          (number "3" (effects (font (size 1.27 1.27))))
        )
        (pin input line (at 6.35 -1.27 180) (length 2.54)
          (name "TXD" (effects (font (size 1.27 1.27))))
          (number "4" (effects (font (size 1.27 1.27))))
        )
        (pin input line (at 6.35 -3.81 180) (length 2.54)
          (name "RXD" (effects (font (size 1.27 1.27))))
          (number "5" (effects (font (size 1.27 1.27))))
        )
        (pin input line (at 6.35 -6.35 180) (length 2.54)
          (name "BOOT0" (effects (font (size 1.27 1.27))))
          (number "6" (effects (font (size 1.27 1.27))))
        )
      )
    )
    (symbol "power:+3.3V" (power) (pin_names (offset 0)) (in_bom yes) (on_board yes)
      (property "Reference" "#PWR" (id 0) (at 0 -3.81 0)
        (effects (font (size 1.27 1.27)) hide)
      )
      (property "Value" "+3.3V" (id 1) (at 0 3.556 0)
        (effects (font (size 1.27 1.27)))
      )
      (property "Footprint" "" (id 2) (at 0 0 0)
        (effects (font (size 1.27 1.27)) hide)
      )
      (property "Datasheet" "" (id 3) (at 0 0 0)
        (effects (font (size 1.27 1.27)) hide)
      )
      (property "ki_keywords" "power-flag" (id 4) (at 0 0 0)
        (effects (font (size 1.27 1.27)) hide)
      )
      (property "ki_description" "Power symbol creates a global label with name \"+3.3V\"" (id 5) (at 0 0 0)
        (effects (font (size 1.27 1.27)) hide)
      )
      (symbol "+3.3V_0_1"
        (polyline
          (pts
            (xy -0.762 1.27)
            (xy 0 2.54)
          )
          (stroke (width 0) (type default) (color 0 0 0 0))
          (fill (type none))
        )
        (polyline
          (pts
            (xy 0 0)
            (xy 0 2.54)
          )
          (stroke (width 0) (type default) (color 0 0 0 0))
          (fill (type none))
        )
        (polyline
          (pts
            (xy 0 2.54)
            (xy 0.762 1.27)
          )
          (stroke (width 0) (type default) (color 0 0 0 0))
          (fill (type none))
        )
      )
      (symbol "+3.3V_1_1"
        (pin power_in line (at 0 0 90) (length 0) hide
          (name "+3.3V" (effects (font (size 1.27 1.27))))
          (number "1" (effects (font (size 1.27 1.27))))
        )
      )
    )
    (symbol "power:GND" (power) (pin_names (offset 0)) (in_bom yes) (on_board yes)
      (property "Reference" "#PWR" (id 0) (at 0 -6.35 0)
        (effects (font (size 1.27 1.27)) hide)
      )
      (property "Value" "GND" (id 1) (at 0 -3.81 0)
        (effects (font (size 1.27 1.27)))
      )
      (property "Footprint" "" (id 2) (at 0 0 0)
        (effects (font (size 1.27 1.27)) hide)
      )
      (property "Datasheet" "" (id 3) (at 0 0 0)
        (effects (font (size 1.27 1.27)) hide)
      )
      (property "ki_keywords" "power-flag" (id 4) (at 0 0 0)
        (effects (font (size 1.27 1.27)) hide)
      )
      (property "ki_description" "Power symbol creates a global label with name \"GND\" , ground" (id 5) (at 0 0 0)
        (effects (font (size 1.27 1.27)) hide)
      )
      (symbol "GND_0_1"
        (polyline
          (pts
            (xy 0 0)
            (xy 0 -1.27)
            (xy 1.27 -1.27)
            (xy 0 -2.54)
            (xy -1.27 -1.27)
            (xy 0 -1.27)
          )
          (stroke (width 0) (type default) (color 0 0 0 0))
          (fill (type none))
        )
      )
      (symbol "GND_1_1"
        (pin power_in line (at 0 0 270) (length 0) hide
          (name "GND" (effects (font (size 1.27 1.27))))
          (number "1" (effects (font (size 1.27 1.27))))
        )
      )
    )
  )


  (wire (pts (xy 77.47 29.21) (xy 77.47 34.29))
    (stroke (width 0) (type default) (color 0 0 0 0))
    (uuid a2124996-e7fe-4924-a5f1-970de3a4be4f)
  )
  (wire (pts (xy 76.2 83.82) (xy 76.2 88.9))
    (stroke (width 0) (type default) (color 0 0 0 0))
    (uuid cc76dc7a-a112-46ac-a633-b11ecd41322e)
  )

  (label "RXD" (at 58.42 74.93 0)
    (effects (font (size 1.27 1.27)) (justify left bottom))
    (uuid 0cc37d1d-13c6-4f0f-85ea-ad9dbbfba8de)
  )
  (label "BOOT0" (at 40.64 121.92 0)
    (effects (font (size 1.27 1.27)) (justify left bottom))
    (uuid 0e9e8ff4-8bdf-4455-8958-1de7557b9cb6)
  )
  (label "RTS" (at 40.64 102.87 0)
    (effects (font (size 1.27 1.27)) (justify left bottom))
    (uuid 14aef622-4212-4595-b447-d1224064de36)
  )
  (label "DTR" (at 40.64 132.08 0)
    (effects (font (size 1.27 1.27)) (justify left bottom))
    (uuid 14cfd40b-39e4-4642-944c-e0f25e987daa)
  )
  (label "RTS" (at 124.46 58.42 0)
    (effects (font (size 1.27 1.27)) (justify left bottom))
    (uuid 1a83770f-2898-4071-b895-353c2e5f5999)
  )
  (label "TXD" (at 76.2 86.36 180)
    (effects (font (size 1.27 1.27)) (justify right bottom))
    (uuid 28821feb-5b6f-4e3d-bed3-90971f2cc878)
  )
  (label "RXD232" (at 85.09 29.21 0)
    (effects (font (size 1.27 1.27)) (justify left bottom))
    (uuid 55cd240e-6fc3-47ed-9bb1-cabb2ddd9f30)
  )
  (label "TXD" (at 58.42 72.39 0)
    (effects (font (size 1.27 1.27)) (justify left bottom))
    (uuid 5a38d93f-4ded-4f75-99d4-abb1d722b8c2)
  )
  (label "TXD232" (at 83.82 83.82 0)
    (effects (font (size 1.27 1.27)) (justify left bottom))
    (uuid 5f8e67a9-3fd4-4796-9da6-e319e49704ad)
  )
  (label "EN" (at 40.64 92.71 0)
    (effects (font (size 1.27 1.27)) (justify left bottom))
    (uuid 7f0a69fe-5483-4c45-9388-dae70387c9cc)
  )
  (label "RXD" (at 77.47 31.75 180)
    (effects (font (size 1.27 1.27)) (justify right bottom))
    (uuid 892a0cb6-8552-4005-be87-ddcabc1ed966)
  )
  (label "RXD232" (at 83.82 88.9 0)
    (effects (font (size 1.27 1.27)) (justify left bottom))
    (uuid 8c5f70e6-5065-4ef7-b42f-f8b0d1a57d6c)
  )
  (label "DTR" (at 25.4 97.79 180)
    (effects (font (size 1.27 1.27)) (justify right bottom))
    (uuid 9ff46008-6b51-4cd5-812a-b23c78fccdbe)
  )
  (label "RTS" (at 25.4 127 180)
    (effects (font (size 1.27 1.27)) (justify right bottom))
    (uuid b3c8ed22-604b-4795-a2a4-7f8289df6058)
  )
  (label "RXD232" (at 124.46 53.34 0)
    (effects (font (size 1.27 1.27)) (justify left bottom))
    (uuid de45026c-6493-4124-87e5-4f9e92af7146)
  )
  (label "BOOT0" (at 58.42 77.47 0)
    (effects (font (size 1.27 1.27)) (justify left bottom))
    (uuid e4a2fcb3-5d95-43e4-a547-fee0920dc1dc)
  )
  (label "TXD232" (at 124.46 63.5 0)
    (effects (font (size 1.27 1.27)) (justify left bottom))
    (uuid eecc4dbc-ecfa-43ca-bb61-15419415fe74)
  )
  (label "DTR" (at 124.46 60.96 0)
    (effects (font (size 1.27 1.27)) (justify left bottom))
    (uuid f49ca0d9-e6f5-4397-927e-7948df95e413)
  )
  (label "EN" (at 58.42 64.77 0)
    (effects (font (size 1.27 1.27)) (justify left bottom))
    (uuid f80a69aa-d4cb-4bf3-a98e-602998ad730f)
  )
  (label "TXD232" (at 85.09 34.29 0)
    (effects (font (size 1.27 1.27)) (justify left bottom))
    (uuid f845e8fd-f6d9-4ff7-ad24-4848c2f1f158)
  )

  (symbol (lib_id "Transistor_BJT:BC847") (at 38.1 127 0) (mirror x) (unit 1)
    (in_bom yes) (on_board yes) (fields_autoplaced)
    (uuid 100c67fc-59c6-449f-aa8e-404a4d0242e1)
    (property "Reference" "Q2" (id 0) (at 43.18 125.7299 0)
      (effects (font (size 1.27 1.27)) (justify left))
    )
    (property "Value" "BC847" (id 1) (at 43.18 128.2699 0)
      (effects (font (size 1.27 1.27)) (justify left))
    )
    (property "Footprint" "Package_TO_SOT_SMD:SOT-23" (id 2) (at 43.18 125.095 0)
      (effects (font (size 1.27 1.27) italic) (justify left) hide)
    )
    (property "Datasheet" "http://www.infineon.com/dgdl/Infineon-BC847SERIES_BC848SERIES_BC849SERIES_BC850SERIES-DS-v01_01-en.pdf?fileId=db3a304314dca389011541d4630a1657" (id 3) (at 38.1 127 0)
      (effects (font (size 1.27 1.27)) (justify left) hide)
    )
    (pin "1" (uuid a3b83f4e-8574-4011-a1a9-6c1c3987bfc7))
    (pin "2" (uuid e0ca5346-e3e2-4512-aaf5-a45919e4308d))
    (pin "3" (uuid f0b485a8-de3a-43b0-b527-7a15eff2e889))
  )

  (symbol (lib_id "power:GND") (at 58.42 67.31 90) (unit 1)
    (in_bom yes) (on_board yes) (fields_autoplaced)
    (uuid 1c29fd25-1dd4-4a57-9c91-e1833105dfd3)
    (property "Reference" "#PWR0101" (id 0) (at 64.77 67.31 0)
      (effects (font (size 1.27 1.27)) hide)
    )
    (property "Value" "GND" (id 1) (at 62.23 67.3099 90)
      (effects (font (size 1.27 1.27)) (justify right))
    )
    (property "Footprint" "" (id 2) (at 58.42 67.31 0)
      (effects (font (size 1.27 1.27)) hide)
    )
    (property "Datasheet" "" (id 3) (at 58.42 67.31 0)
      (effects (font (size 1.27 1.27)) hide)
    )
    (pin "1" (uuid 4d9d2ee5-8871-4368-9030-ab1052bc88a0))
  )

  (symbol (lib_id "Jumper:SolderJumper_2_Open") (at 81.28 34.29 0) (unit 1)
    (in_bom yes) (on_board yes)
    (uuid 2d8ba26d-6834-463c-a7fd-9a874b7b1d43)
    (property "Reference" "JP4" (id 0) (at 81.28 36.83 0))
    (property "Value" "SolderJumper_2_Open" (id 1) (at 81.28 39.37 0))
    (property "Footprint" "Jumper:SolderJumper-2_P1.3mm_Open_RoundedPad1.0x1.5mm" (id 2) (at 81.28 34.29 0)
      (effects (font (size 1.27 1.27)) hide)
    )
    (property "Datasheet" "~" (id 3) (at 81.28 34.29 0)
      (effects (font (size 1.27 1.27)) hide)
    )
    (pin "1" (uuid 754dbf29-3116-47e6-9285-09fd15c602bc))
    (pin "2" (uuid 6a0e71d4-e063-4c30-86f6-19dfe13717aa))
  )

  (symbol (lib_id "Device:R") (at 40.64 118.11 0) (unit 1)
    (in_bom yes) (on_board yes) (fields_autoplaced)
    (uuid 3905c055-10ac-45c8-a7b9-6a7a8ebcf5c9)
    (property "Reference" "R3" (id 0) (at 43.18 116.8399 0)
      (effects (font (size 1.27 1.27)) (justify left))
    )
    (property "Value" "10K" (id 1) (at 43.18 119.3799 0)
      (effects (font (size 1.27 1.27)) (justify left))
    )
    (property "Footprint" "Resistor_SMD:R_0603_1608Metric_Pad0.98x0.95mm_HandSolder" (id 2) (at 38.862 118.11 90)
      (effects (font (size 1.27 1.27)) hide)
    )
    (property "Datasheet" "~" (id 3) (at 40.64 118.11 0)
      (effects (font (size 1.27 1.27)) hide)
    )
    (pin "1" (uuid e331cce0-902a-4e91-84b6-aac50f8ae0ca))
    (pin "2" (uuid 84fbea55-acf5-4211-a7dc-ea4bc427235a))
  )

  (symbol (lib_id "Device:R") (at 29.21 127 90) (unit 1)
    (in_bom yes) (on_board yes) (fields_autoplaced)
    (uuid 3fa48e8e-dae4-40c7-b6a7-76948a519fdc)
    (property "Reference" "R2" (id 0) (at 29.21 120.65 90))
    (property "Value" "10K" (id 1) (at 29.21 123.19 90))
    (property "Footprint" "Resistor_SMD:R_0603_1608Metric_Pad0.98x0.95mm_HandSolder" (id 2) (at 29.21 128.778 90)
      (effects (font (size 1.27 1.27)) hide)
    )
    (property "Datasheet" "~" (id 3) (at 29.21 127 0)
      (effects (font (size 1.27 1.27)) hide)
    )
    (pin "1" (uuid 79919eaf-78f5-4777-a9d8-1fb78ea04397))
    (pin "2" (uuid c6312031-2249-43fb-99e1-fa52d4d74b6a))
  )

  (symbol (lib_id "Device:R") (at 29.21 97.79 90) (unit 1)
    (in_bom yes) (on_board yes) (fields_autoplaced)
    (uuid 477c6c2d-2197-4df8-a388-a2d88236b659)
    (property "Reference" "R1" (id 0) (at 29.21 91.44 90))
    (property "Value" "10K" (id 1) (at 29.21 93.98 90))
    (property "Footprint" "Resistor_SMD:R_0603_1608Metric_Pad0.98x0.95mm_HandSolder" (id 2) (at 29.21 99.568 90)
      (effects (font (size 1.27 1.27)) hide)
    )
    (property "Datasheet" "~" (id 3) (at 29.21 97.79 0)
      (effects (font (size 1.27 1.27)) hide)
    )
    (pin "1" (uuid f736044e-e21f-42b4-856e-bb4cc7422244))
    (pin "2" (uuid 40b124d5-0120-4c5b-b3cd-471f7e539734))
  )

  (symbol (lib_id "power:+3.3V") (at 40.64 114.3 0) (unit 1)
    (in_bom yes) (on_board yes) (fields_autoplaced)
    (uuid 55db31cc-979e-415b-9034-36e0ed577e1e)
    (property "Reference" "#PWR0103" (id 0) (at 40.64 118.11 0)
      (effects (font (size 1.27 1.27)) hide)
    )
    (property "Value" "+3.3V" (id 1) (at 43.18 113.0299 0)
      (effects (font (size 1.27 1.27)) (justify left))
    )
    (property "Footprint" "" (id 2) (at 40.64 114.3 0)
      (effects (font (size 1.27 1.27)) hide)
    )
    (property "Datasheet" "" (id 3) (at 40.64 114.3 0)
      (effects (font (size 1.27 1.27)) hide)
    )
    (pin "1" (uuid 5f9d9ee7-e8fa-4015-a9ee-2c76fad1e46e))
  )

  (symbol (lib_id "power:+3.3V") (at 58.42 69.85 270) (unit 1)
    (in_bom yes) (on_board yes) (fields_autoplaced)
    (uuid 58797f35-750a-4975-ba8e-f7d3aaec14ec)
    (property "Reference" "#PWR0102" (id 0) (at 54.61 69.85 0)
      (effects (font (size 1.27 1.27)) hide)
    )
    (property "Value" "+3.3V" (id 1) (at 62.23 69.8499 90)
      (effects (font (size 1.27 1.27)) (justify left))
    )
    (property "Footprint" "" (id 2) (at 58.42 69.85 0)
      (effects (font (size 1.27 1.27)) hide)
    )
    (property "Datasheet" "" (id 3) (at 58.42 69.85 0)
      (effects (font (size 1.27 1.27)) hide)
    )
    (pin "1" (uuid 11435ceb-4a44-4513-9e3d-a96416bc13e1))
  )

  (symbol (lib_id "Jumper:SolderJumper_2_Open") (at 80.01 88.9 0) (unit 1)
    (in_bom yes) (on_board yes)
    (uuid 70bf97d9-24fe-41eb-8a72-f9c059b34bd4)
    (property "Reference" "JP2" (id 0) (at 80.01 82.55 0))
    (property "Value" "SolderJumper_2_Open" (id 1) (at 80.01 91.44 0))
    (property "Footprint" "Jumper:SolderJumper-2_P1.3mm_Open_RoundedPad1.0x1.5mm" (id 2) (at 80.01 88.9 0)
      (effects (font (size 1.27 1.27)) hide)
    )
    (property "Datasheet" "~" (id 3) (at 80.01 88.9 0)
      (effects (font (size 1.27 1.27)) hide)
    )
    (pin "1" (uuid 617b4afa-70dd-4867-95af-036ef05d5af8))
    (pin "2" (uuid 1a9e4adc-63e8-48c2-bb5e-661bd081130a))
  )

  (symbol (lib_id "power:+3.3V") (at 101.6 53.34 90) (unit 1)
    (in_bom yes) (on_board yes)
    (uuid 95b9535e-7cff-4696-b1c5-b95ebd2c51af)
    (property "Reference" "#PWR0106" (id 0) (at 105.41 53.34 0)
      (effects (font (size 1.27 1.27)) hide)
    )
    (property "Value" "+3.3V" (id 1) (at 92.71 53.34 90)
      (effects (font (size 1.27 1.27)) (justify right))
    )
    (property "Footprint" "" (id 2) (at 101.6 53.34 0)
      (effects (font (size 1.27 1.27)) hide)
    )
    (property "Datasheet" "" (id 3) (at 101.6 53.34 0)
      (effects (font (size 1.27 1.27)) hide)
    )
    (pin "1" (uuid ec4ed8e1-e391-46b1-a16c-211d96d52cef))
  )

  (symbol (lib_id "Jumper:SolderJumper_2_Bridged") (at 81.28 29.21 0) (unit 1)
    (in_bom yes) (on_board yes) (fields_autoplaced)
    (uuid 99ed4358-eb2c-4cc5-8e29-2c9c5e56eafa)
    (property "Reference" "JP3" (id 0) (at 81.28 22.86 0))
    (property "Value" "SolderJumper_2_Bridged" (id 1) (at 81.28 25.4 0))
    (property "Footprint" "Jumper:SolderJumper-2_P1.3mm_Bridged_RoundedPad1.0x1.5mm" (id 2) (at 81.28 29.21 0)
      (effects (font (size 1.27 1.27)) hide)
    )
    (property "Datasheet" "~" (id 3) (at 81.28 29.21 0)
      (effects (font (size 1.27 1.27)) hide)
    )
    (pin "1" (uuid be5b8d53-7d44-4683-998a-684ff0cc88b4))
    (pin "2" (uuid cc96a160-4acf-4d78-90fb-51c741868a49))
  )

  (symbol (lib_id "Transistor_BJT:BC847") (at 38.1 97.79 0) (unit 1)
    (in_bom yes) (on_board yes) (fields_autoplaced)
    (uuid b50aa7f2-05f6-44b0-ba9b-25347f768c6e)
    (property "Reference" "Q1" (id 0) (at 43.18 96.5199 0)
      (effects (font (size 1.27 1.27)) (justify left))
    )
    (property "Value" "BC847" (id 1) (at 43.18 99.0599 0)
      (effects (font (size 1.27 1.27)) (justify left))
    )
    (property "Footprint" "Package_TO_SOT_SMD:SOT-23" (id 2) (at 43.18 99.695 0)
      (effects (font (size 1.27 1.27) italic) (justify left) hide)
    )
    (property "Datasheet" "http://www.infineon.com/dgdl/Infineon-BC847SERIES_BC848SERIES_BC849SERIES_BC850SERIES-DS-v01_01-en.pdf?fileId=db3a304314dca389011541d4630a1657" (id 3) (at 38.1 97.79 0)
      (effects (font (size 1.27 1.27)) (justify left) hide)
    )
    (pin "1" (uuid ea6145ca-f8e0-4fc6-9a89-5b72bfba42c1))
    (pin "2" (uuid 71ede75e-fbf0-4dc9-8535-dae79a1f7da1))
    (pin "3" (uuid 87add105-ef12-426e-8d11-a5930e50c880))
  )

  (symbol (lib_id "power:GND") (at 101.6 63.5 270) (unit 1)
    (in_bom yes) (on_board yes) (fields_autoplaced)
    (uuid ce199283-4b4d-476c-861d-3b93bf1f3d6c)
    (property "Reference" "#PWR0107" (id 0) (at 95.25 63.5 0)
      (effects (font (size 1.27 1.27)) hide)
    )
    (property "Value" "GND" (id 1) (at 102.87 63.4999 90)
      (effects (font (size 1.27 1.27)) (justify left))
    )
    (property "Footprint" "" (id 2) (at 101.6 63.5 0)
      (effects (font (size 1.27 1.27)) hide)
    )
    (property "Datasheet" "" (id 3) (at 101.6 63.5 0)
      (effects (font (size 1.27 1.27)) hide)
    )
    (pin "1" (uuid ba1079cc-f86d-434a-a061-d0cec713d3db))
  )

  (symbol (lib_id "awesome:debug6-MicroMatch2X03") (at 52.07 71.12 0) (unit 1)
    (in_bom yes) (on_board yes) (fields_autoplaced)
    (uuid eb63f69e-6679-4df7-9d18-12759a37bd27)
    (property "Reference" "J1" (id 0) (at 52.07 58.42 0))
    (property "Value" "debug6-MicroMatch2X03" (id 1) (at 52.07 60.96 0))
    (property "Footprint" "awesome:02x03MicroMatch" (id 2) (at 53.34 62.23 0)
      (effects (font (size 1.27 1.27)) hide)
    )
    (property "Datasheet" "" (id 3) (at 52.07 71.12 0)
      (effects (font (size 1.27 1.27)) hide)
    )
    (pin "1" (uuid 947d27a1-b572-4279-961f-805396cd161d))
    (pin "2" (uuid 7a34d024-437f-48e0-9a0a-89dd47321a15))
    (pin "3" (uuid 52e6a4cd-7599-4db1-b046-1f9afec7f2d5))
    (pin "4" (uuid 7f4c0a27-51f5-455f-b7da-6442ad847dd6))
    (pin "5" (uuid d84d9950-f03d-40d7-b6d3-c3acce845930))
    (pin "6" (uuid d20d4780-c6a7-48bb-9ee2-40ab54565935))
  )

  (symbol (lib_id "power:GND") (at 124.46 48.26 90) (unit 1)
    (in_bom yes) (on_board yes) (fields_autoplaced)
    (uuid ee650c9c-e2a0-4a6d-816a-60a0bffd2799)
    (property "Reference" "#PWR0105" (id 0) (at 130.81 48.26 0)
      (effects (font (size 1.27 1.27)) hide)
    )
    (property "Value" "GND" (id 1) (at 128.27 48.2599 90)
      (effects (font (size 1.27 1.27)) (justify right))
    )
    (property "Footprint" "" (id 2) (at 124.46 48.26 0)
      (effects (font (size 1.27 1.27)) hide)
    )
    (property "Datasheet" "" (id 3) (at 124.46 48.26 0)
      (effects (font (size 1.27 1.27)) hide)
    )
    (pin "1" (uuid 90aaf862-03f8-4d31-9b77-8ab144c266e0))
  )

  (symbol (lib_id "awesome:RS232-Debug") (at 113.03 53.34 0) (unit 1)
    (in_bom yes) (on_board yes) (fields_autoplaced)
    (uuid ef717d3d-735b-4ab6-b844-573879491684)
    (property "Reference" "U2" (id 0) (at 113.03 36.83 0))
    (property "Value" "RS232-Debug" (id 1) (at 113.03 39.37 0))
    (property "Footprint" "awesome:RS232-Debug" (id 2) (at 111.76 59.69 0)
      (effects (font (size 1.27 1.27)) hide)
    )
    (property "Datasheet" "" (id 3) (at 111.76 59.69 0)
      (effects (font (size 1.27 1.27)) hide)
    )
    (pin "1" (uuid 1ccce30d-ca51-4bfc-9ab8-cc0970788931))
    (pin "10" (uuid 0b434cce-44cb-4985-b986-7afe1681e901))
    (pin "11" (uuid cb613542-1a91-4cf5-89da-d6d0b33632d3))
    (pin "12" (uuid e562fd04-4e07-4dff-b43b-8e0d74fa1d49))
    (pin "13" (uuid 12426a1a-d4ed-48da-a885-49757fc7f99b))
    (pin "14" (uuid 2c5210c0-b648-458c-9eb9-dc89bdddc5ef))
    (pin "15" (uuid 4bcf5b81-6c7a-4d88-8d2a-288b358facb7))
    (pin "16" (uuid 7bc558f2-756c-4f48-a12d-5c891cfaea73))
    (pin "17" (uuid 69f32593-908f-4722-805f-f528b04fae4e))
    (pin "18" (uuid eeee31f5-8c98-40ce-a832-653f609b32e7))
    (pin "2" (uuid 51e5896c-43c5-4e43-a089-e87c7e419652))
    (pin "3" (uuid 1305ea36-b1f1-4442-9886-1a8443b78242))
    (pin "4" (uuid b39ca062-5f46-4aa5-bb34-cb9751f10872))
    (pin "5" (uuid f7ce7f26-1d82-48fc-96ad-bb0c5aab90a3))
    (pin "6" (uuid 266bbeee-4b1d-4698-8aed-3cb9f248c1e6))
    (pin "7" (uuid 3862743e-bf2f-47bc-a054-048f11ed8c74))
    (pin "8" (uuid 610a4f58-e778-432b-91fa-9d07df6e55ae))
    (pin "9" (uuid 224954cd-131b-4c32-a7cc-22142841e91f))
  )

  (symbol (lib_id "Jumper:SolderJumper_2_Bridged") (at 80.01 83.82 0) (unit 1)
    (in_bom yes) (on_board yes) (fields_autoplaced)
    (uuid efa22341-b415-44a8-853c-45a7f2c28014)
    (property "Reference" "JP1" (id 0) (at 80.01 77.47 0))
    (property "Value" "SolderJumper_2_Bridged" (id 1) (at 80.01 80.01 0))
    (property "Footprint" "Jumper:SolderJumper-2_P1.3mm_Bridged_RoundedPad1.0x1.5mm" (id 2) (at 80.01 83.82 0)
      (effects (font (size 1.27 1.27)) hide)
    )
    (property "Datasheet" "~" (id 3) (at 80.01 83.82 0)
      (effects (font (size 1.27 1.27)) hide)
    )
    (pin "1" (uuid b8e386fd-2dd3-43b1-93c8-d09a9ec5dc3a))
    (pin "2" (uuid 7a6e0779-301e-41fa-98f5-21e354d4db69))
  )

  (sheet_instances
    (path "/" (page "1"))
  )

  (symbol_instances
    (path "/1c29fd25-1dd4-4a57-9c91-e1833105dfd3"
      (reference "#PWR0101") (unit 1) (value "GND") (footprint "")
    )
    (path "/58797f35-750a-4975-ba8e-f7d3aaec14ec"
      (reference "#PWR0102") (unit 1) (value "+3.3V") (footprint "")
    )
    (path "/55db31cc-979e-415b-9034-36e0ed577e1e"
      (reference "#PWR0103") (unit 1) (value "+3.3V") (footprint "")
    )
    (path "/ee650c9c-e2a0-4a6d-816a-60a0bffd2799"
      (reference "#PWR0105") (unit 1) (value "GND") (footprint "")
    )
    (path "/95b9535e-7cff-4696-b1c5-b95ebd2c51af"
      (reference "#PWR0106") (unit 1) (value "+3.3V") (footprint "")
    )
    (path "/ce199283-4b4d-476c-861d-3b93bf1f3d6c"
      (reference "#PWR0107") (unit 1) (value "GND") (footprint "")
    )
    (path "/eb63f69e-6679-4df7-9d18-12759a37bd27"
      (reference "J1") (unit 1) (value "debug6-MicroMatch2X03") (footprint "awesome:02x03MicroMatch")
    )
    (path "/efa22341-b415-44a8-853c-45a7f2c28014"
      (reference "JP1") (unit 1) (value "SolderJumper_2_Bridged") (footprint "Jumper:SolderJumper-2_P1.3mm_Bridged_RoundedPad1.0x1.5mm")
    )
    (path "/70bf97d9-24fe-41eb-8a72-f9c059b34bd4"
      (reference "JP2") (unit 1) (value "SolderJumper_2_Open") (footprint "Jumper:SolderJumper-2_P1.3mm_Open_RoundedPad1.0x1.5mm")
    )
    (path "/99ed4358-eb2c-4cc5-8e29-2c9c5e56eafa"
      (reference "JP3") (unit 1) (value "SolderJumper_2_Bridged") (footprint "Jumper:SolderJumper-2_P1.3mm_Bridged_RoundedPad1.0x1.5mm")
    )
    (path "/2d8ba26d-6834-463c-a7fd-9a874b7b1d43"
      (reference "JP4") (unit 1) (value "SolderJumper_2_Open") (footprint "Jumper:SolderJumper-2_P1.3mm_Open_RoundedPad1.0x1.5mm")
    )
    (path "/b50aa7f2-05f6-44b0-ba9b-25347f768c6e"
      (reference "Q1") (unit 1) (value "BC847") (footprint "Package_TO_SOT_SMD:SOT-23")
    )
    (path "/100c67fc-59c6-449f-aa8e-404a4d0242e1"
      (reference "Q2") (unit 1) (value "BC847") (footprint "Package_TO_SOT_SMD:SOT-23")
    )
    (path "/477c6c2d-2197-4df8-a388-a2d88236b659"
      (reference "R1") (unit 1) (value "10K") (footprint "Resistor_SMD:R_0603_1608Metric_Pad0.98x0.95mm_HandSolder")
    )
    (path "/3fa48e8e-dae4-40c7-b6a7-76948a519fdc"
      (reference "R2") (unit 1) (value "10K") (footprint "Resistor_SMD:R_0603_1608Metric_Pad0.98x0.95mm_HandSolder")
    )
    (path "/3905c055-10ac-45c8-a7b9-6a7a8ebcf5c9"
      (reference "R3") (unit 1) (value "10K") (footprint "Resistor_SMD:R_0603_1608Metric_Pad0.98x0.95mm_HandSolder")
    )
    (path "/ef717d3d-735b-4ab6-b844-573879491684"
      (reference "U2") (unit 1) (value "RS232-Debug") (footprint "awesome:RS232-Debug")
    )
  )
)
