(kicad_sch (version 20211123) (generator eeschema)

  (uuid d9fd0315-ad52-4ece-8eeb-ff530e20a504)

  (paper "A4")

  (lib_symbols
    (symbol "Connector:Conn_01x08_Male" (pin_names (offset 1.016) hide) (in_bom yes) (on_board yes)
      (property "Reference" "J" (id 0) (at 0 10.16 0)
        (effects (font (size 1.27 1.27)))
      )
      (property "Value" "Conn_01x08_Male" (id 1) (at 0 -12.7 0)
        (effects (font (size 1.27 1.27)))
      )
      (property "Footprint" "" (id 2) (at 0 0 0)
        (effects (font (size 1.27 1.27)) hide)
      )
      (property "Datasheet" "~" (id 3) (at 0 0 0)
        (effects (font (size 1.27 1.27)) hide)
      )
      (property "ki_keywords" "connector" (id 4) (at 0 0 0)
        (effects (font (size 1.27 1.27)) hide)
      )
      (property "ki_description" "Generic connector, single row, 01x08, script generated (kicad-library-utils/schlib/autogen/connector/)" (id 5) (at 0 0 0)
        (effects (font (size 1.27 1.27)) hide)
      )
      (property "ki_fp_filters" "Connector*:*_1x??_*" (id 6) (at 0 0 0)
        (effects (font (size 1.27 1.27)) hide)
      )
      (symbol "Conn_01x08_Male_1_1"
        (polyline
          (pts
            (xy 1.27 -10.16)
            (xy 0.8636 -10.16)
          )
          (stroke (width 0.1524) (type default) (color 0 0 0 0))
          (fill (type none))
        )
        (polyline
          (pts
            (xy 1.27 -7.62)
            (xy 0.8636 -7.62)
          )
          (stroke (width 0.1524) (type default) (color 0 0 0 0))
          (fill (type none))
        )
        (polyline
          (pts
            (xy 1.27 -5.08)
            (xy 0.8636 -5.08)
          )
          (stroke (width 0.1524) (type default) (color 0 0 0 0))
          (fill (type none))
        )
        (polyline
          (pts
            (xy 1.27 -2.54)
            (xy 0.8636 -2.54)
          )
          (stroke (width 0.1524) (type default) (color 0 0 0 0))
          (fill (type none))
        )
        (polyline
          (pts
            (xy 1.27 0)
            (xy 0.8636 0)
          )
          (stroke (width 0.1524) (type default) (color 0 0 0 0))
          (fill (type none))
        )
        (polyline
          (pts
            (xy 1.27 2.54)
            (xy 0.8636 2.54)
          )
          (stroke (width 0.1524) (type default) (color 0 0 0 0))
          (fill (type none))
        )
        (polyline
          (pts
            (xy 1.27 5.08)
            (xy 0.8636 5.08)
          )
          (stroke (width 0.1524) (type default) (color 0 0 0 0))
          (fill (type none))
        )
        (polyline
          (pts
            (xy 1.27 7.62)
            (xy 0.8636 7.62)
          )
          (stroke (width 0.1524) (type default) (color 0 0 0 0))
          (fill (type none))
        )
        (rectangle (start 0.8636 -10.033) (end 0 -10.287)
          (stroke (width 0.1524) (type default) (color 0 0 0 0))
          (fill (type outline))
        )
        (rectangle (start 0.8636 -7.493) (end 0 -7.747)
          (stroke (width 0.1524) (type default) (color 0 0 0 0))
          (fill (type outline))
        )
        (rectangle (start 0.8636 -4.953) (end 0 -5.207)
          (stroke (width 0.1524) (type default) (color 0 0 0 0))
          (fill (type outline))
        )
        (rectangle (start 0.8636 -2.413) (end 0 -2.667)
          (stroke (width 0.1524) (type default) (color 0 0 0 0))
          (fill (type outline))
        )
        (rectangle (start 0.8636 0.127) (end 0 -0.127)
          (stroke (width 0.1524) (type default) (color 0 0 0 0))
          (fill (type outline))
        )
        (rectangle (start 0.8636 2.667) (end 0 2.413)
          (stroke (width 0.1524) (type default) (color 0 0 0 0))
          (fill (type outline))
        )
        (rectangle (start 0.8636 5.207) (end 0 4.953)
          (stroke (width 0.1524) (type default) (color 0 0 0 0))
          (fill (type outline))
        )
        (rectangle (start 0.8636 7.747) (end 0 7.493)
          (stroke (width 0.1524) (type default) (color 0 0 0 0))
          (fill (type outline))
        )
        (pin passive line (at 5.08 7.62 180) (length 3.81)
          (name "Pin_1" (effects (font (size 1.27 1.27))))
          (number "1" (effects (font (size 1.27 1.27))))
        )
        (pin passive line (at 5.08 5.08 180) (length 3.81)
          (name "Pin_2" (effects (font (size 1.27 1.27))))
          (number "2" (effects (font (size 1.27 1.27))))
        )
        (pin passive line (at 5.08 2.54 180) (length 3.81)
          (name "Pin_3" (effects (font (size 1.27 1.27))))
          (number "3" (effects (font (size 1.27 1.27))))
        )
        (pin passive line (at 5.08 0 180) (length 3.81)
          (name "Pin_4" (effects (font (size 1.27 1.27))))
          (number "4" (effects (font (size 1.27 1.27))))
        )
        (pin passive line (at 5.08 -2.54 180) (length 3.81)
          (name "Pin_5" (effects (font (size 1.27 1.27))))
          (number "5" (effects (font (size 1.27 1.27))))
        )
        (pin passive line (at 5.08 -5.08 180) (length 3.81)
          (name "Pin_6" (effects (font (size 1.27 1.27))))
          (number "6" (effects (font (size 1.27 1.27))))
        )
        (pin passive line (at 5.08 -7.62 180) (length 3.81)
          (name "Pin_7" (effects (font (size 1.27 1.27))))
          (number "7" (effects (font (size 1.27 1.27))))
        )
        (pin passive line (at 5.08 -10.16 180) (length 3.81)
          (name "Pin_8" (effects (font (size 1.27 1.27))))
          (number "8" (effects (font (size 1.27 1.27))))
        )
      )
    )
    (symbol "Device:LED" (pin_numbers hide) (pin_names (offset 1.016) hide) (in_bom yes) (on_board yes)
      (property "Reference" "D" (id 0) (at 0 2.54 0)
        (effects (font (size 1.27 1.27)))
      )
      (property "Value" "LED" (id 1) (at 0 -2.54 0)
        (effects (font (size 1.27 1.27)))
      )
      (property "Footprint" "" (id 2) (at 0 0 0)
        (effects (font (size 1.27 1.27)) hide)
      )
      (property "Datasheet" "~" (id 3) (at 0 0 0)
        (effects (font (size 1.27 1.27)) hide)
      )
      (property "ki_keywords" "LED diode" (id 4) (at 0 0 0)
        (effects (font (size 1.27 1.27)) hide)
      )
      (property "ki_description" "Light emitting diode" (id 5) (at 0 0 0)
        (effects (font (size 1.27 1.27)) hide)
      )
      (property "ki_fp_filters" "LED* LED_SMD:* LED_THT:*" (id 6) (at 0 0 0)
        (effects (font (size 1.27 1.27)) hide)
      )
      (symbol "LED_0_1"
        (polyline
          (pts
            (xy -1.27 -1.27)
            (xy -1.27 1.27)
          )
          (stroke (width 0.254) (type default) (color 0 0 0 0))
          (fill (type none))
        )
        (polyline
          (pts
            (xy -1.27 0)
            (xy 1.27 0)
          )
          (stroke (width 0) (type default) (color 0 0 0 0))
          (fill (type none))
        )
        (polyline
          (pts
            (xy 1.27 -1.27)
            (xy 1.27 1.27)
            (xy -1.27 0)
            (xy 1.27 -1.27)
          )
          (stroke (width 0.254) (type default) (color 0 0 0 0))
          (fill (type none))
        )
        (polyline
          (pts
            (xy -3.048 -0.762)
            (xy -4.572 -2.286)
            (xy -3.81 -2.286)
            (xy -4.572 -2.286)
            (xy -4.572 -1.524)
          )
          (stroke (width 0) (type default) (color 0 0 0 0))
          (fill (type none))
        )
        (polyline
          (pts
            (xy -1.778 -0.762)
            (xy -3.302 -2.286)
            (xy -2.54 -2.286)
            (xy -3.302 -2.286)
            (xy -3.302 -1.524)
          )
          (stroke (width 0) (type default) (color 0 0 0 0))
          (fill (type none))
        )
      )
      (symbol "LED_1_1"
        (pin passive line (at -3.81 0 0) (length 2.54)
          (name "K" (effects (font (size 1.27 1.27))))
          (number "1" (effects (font (size 1.27 1.27))))
        )
        (pin passive line (at 3.81 0 180) (length 2.54)
          (name "A" (effects (font (size 1.27 1.27))))
          (number "2" (effects (font (size 1.27 1.27))))
        )
      )
    )
    (symbol "Device:R" (pin_numbers hide) (pin_names (offset 0)) (in_bom yes) (on_board yes)
      (property "Reference" "R" (id 0) (at 2.032 0 90)
        (effects (font (size 1.27 1.27)))
      )
      (property "Value" "R" (id 1) (at 0 0 90)
        (effects (font (size 1.27 1.27)))
      )
      (property "Footprint" "" (id 2) (at -1.778 0 90)
        (effects (font (size 1.27 1.27)) hide)
      )
      (property "Datasheet" "~" (id 3) (at 0 0 0)
        (effects (font (size 1.27 1.27)) hide)
      )
      (property "ki_keywords" "R res resistor" (id 4) (at 0 0 0)
        (effects (font (size 1.27 1.27)) hide)
      )
      (property "ki_description" "Resistor" (id 5) (at 0 0 0)
        (effects (font (size 1.27 1.27)) hide)
      )
      (property "ki_fp_filters" "R_*" (id 6) (at 0 0 0)
        (effects (font (size 1.27 1.27)) hide)
      )
      (symbol "R_0_1"
        (rectangle (start -1.016 -2.54) (end 1.016 2.54)
          (stroke (width 0.254) (type default) (color 0 0 0 0))
          (fill (type none))
        )
      )
      (symbol "R_1_1"
        (pin passive line (at 0 3.81 270) (length 1.27)
          (name "~" (effects (font (size 1.27 1.27))))
          (number "1" (effects (font (size 1.27 1.27))))
        )
        (pin passive line (at 0 -3.81 90) (length 1.27)
          (name "~" (effects (font (size 1.27 1.27))))
          (number "2" (effects (font (size 1.27 1.27))))
        )
      )
    )
    (symbol "Mechanical:MountingHole" (pin_names (offset 1.016)) (in_bom yes) (on_board yes)
      (property "Reference" "H" (id 0) (at 0 5.08 0)
        (effects (font (size 1.27 1.27)))
      )
      (property "Value" "MountingHole" (id 1) (at 0 3.175 0)
        (effects (font (size 1.27 1.27)))
      )
      (property "Footprint" "" (id 2) (at 0 0 0)
        (effects (font (size 1.27 1.27)) hide)
      )
      (property "Datasheet" "~" (id 3) (at 0 0 0)
        (effects (font (size 1.27 1.27)) hide)
      )
      (property "ki_keywords" "mounting hole" (id 4) (at 0 0 0)
        (effects (font (size 1.27 1.27)) hide)
      )
      (property "ki_description" "Mounting Hole without connection" (id 5) (at 0 0 0)
        (effects (font (size 1.27 1.27)) hide)
      )
      (property "ki_fp_filters" "MountingHole*" (id 6) (at 0 0 0)
        (effects (font (size 1.27 1.27)) hide)
      )
      (symbol "MountingHole_0_1"
        (circle (center 0 0) (radius 1.27)
          (stroke (width 1.27) (type default) (color 0 0 0 0))
          (fill (type none))
        )
      )
    )
    (symbol "awesome:RJ45-CAN" (pin_names (offset 1.016)) (in_bom yes) (on_board yes)
      (property "Reference" "J" (id 0) (at 5.08 -12.7 0)
        (effects (font (size 1.27 1.27)) (justify right))
      )
      (property "Value" "RJ45-CAN" (id 1) (at -1.27 -12.7 0)
        (effects (font (size 1.27 1.27)) (justify left))
      )
      (property "Footprint" "Connector_RJ:RJ45_OST_PJ012-8P8CX_Vertical" (id 2) (at 0 0.635 90)
        (effects (font (size 1.27 1.27)) hide)
      )
      (property "Datasheet" "~" (id 3) (at 0 0.635 90)
        (effects (font (size 1.27 1.27)) hide)
      )
      (property "ki_keywords" "8P8C RJ female connector led" (id 4) (at 0 0 0)
        (effects (font (size 1.27 1.27)) hide)
      )
      (property "ki_description" "RJ connector, 8P8C (8 positions 8 connected), two LEDs, RJ45" (id 5) (at 0 0 0)
        (effects (font (size 1.27 1.27)) hide)
      )
      (property "ki_fp_filters" "8P8C* RJ45*" (id 6) (at 0 0 0)
        (effects (font (size 1.27 1.27)) hide)
      )
      (symbol "RJ45-CAN_0_1"
        (rectangle (start -7.62 -11.43) (end 7.62 11.43)
          (stroke (width 0.254) (type default) (color 0 0 0 0))
          (fill (type background))
        )
        (polyline
          (pts
            (xy 5.08 -4.445)
            (xy 6.35 -4.445)
          )
          (stroke (width 0) (type default) (color 0 0 0 0))
          (fill (type none))
        )
        (polyline
          (pts
            (xy 5.08 -3.175)
            (xy 6.35 -3.175)
          )
          (stroke (width 0) (type default) (color 0 0 0 0))
          (fill (type none))
        )
        (polyline
          (pts
            (xy 5.08 -1.905)
            (xy 6.35 -1.905)
            (xy 6.35 -1.905)
          )
          (stroke (width 0) (type default) (color 0 0 0 0))
          (fill (type none))
        )
        (polyline
          (pts
            (xy 6.35 -0.635)
            (xy 5.08 -0.635)
            (xy 5.08 -0.635)
          )
          (stroke (width 0) (type default) (color 0 0 0 0))
          (fill (type none))
        )
        (polyline
          (pts
            (xy 6.35 0.635)
            (xy 5.08 0.635)
            (xy 5.08 0.635)
          )
          (stroke (width 0) (type default) (color 0 0 0 0))
          (fill (type none))
        )
        (polyline
          (pts
            (xy 6.35 1.905)
            (xy 5.08 1.905)
            (xy 5.08 1.905)
          )
          (stroke (width 0) (type default) (color 0 0 0 0))
          (fill (type none))
        )
        (polyline
          (pts
            (xy 6.35 3.175)
            (xy 5.08 3.175)
            (xy 5.08 3.175)
          )
          (stroke (width 0) (type default) (color 0 0 0 0))
          (fill (type none))
        )
        (polyline
          (pts
            (xy 6.35 4.445)
            (xy 5.08 4.445)
            (xy 5.08 4.445)
          )
          (stroke (width 0) (type default) (color 0 0 0 0))
          (fill (type none))
        )
        (polyline
          (pts
            (xy 6.35 5.715)
            (xy 6.35 -5.715)
            (xy -3.81 -5.715)
            (xy -3.81 -3.175)
            (xy -5.08 -3.175)
            (xy -5.08 -1.905)
            (xy -6.35 -1.905)
            (xy -6.35 1.905)
            (xy -5.08 1.905)
            (xy -5.08 3.175)
            (xy -3.81 3.175)
            (xy -3.81 5.715)
            (xy 6.35 5.715)
            (xy 6.35 5.715)
          )
          (stroke (width 0) (type default) (color 0 0 0 0))
          (fill (type none))
        )
      )
      (symbol "RJ45-CAN_1_1"
        (pin passive line (at -10.16 8.89 0) (length 2.54)
          (name "GND" (effects (font (size 1.27 1.27))))
          (number "1" (effects (font (size 1.27 1.27))))
        )
        (pin passive line (at -10.16 6.35 0) (length 2.54)
          (name "+12V" (effects (font (size 1.27 1.27))))
          (number "2" (effects (font (size 1.27 1.27))))
        )
        (pin passive line (at -10.16 3.81 0) (length 2.54)
          (name "CANL" (effects (font (size 1.27 1.27))))
          (number "3" (effects (font (size 1.27 1.27))))
        )
        (pin passive line (at -10.16 1.27 0) (length 2.54)
          (name "CANL" (effects (font (size 1.27 1.27))))
          (number "4" (effects (font (size 1.27 1.27))))
        )
        (pin passive line (at -10.16 -1.27 0) (length 2.54)
          (name "CANH" (effects (font (size 1.27 1.27))))
          (number "5" (effects (font (size 1.27 1.27))))
        )
        (pin passive line (at -10.16 -3.81 0) (length 2.54)
          (name "CANH" (effects (font (size 1.27 1.27))))
          (number "6" (effects (font (size 1.27 1.27))))
        )
        (pin passive line (at -10.16 -6.35 0) (length 2.54)
          (name "+5V" (effects (font (size 1.27 1.27))))
          (number "7" (effects (font (size 1.27 1.27))))
        )
        (pin passive line (at -10.16 -8.89 0) (length 2.54)
          (name "GND" (effects (font (size 1.27 1.27))))
          (number "8" (effects (font (size 1.27 1.27))))
        )
      )
    )
    (symbol "awesome:WAGO250-208" (pin_names (offset 1.016)) (in_bom yes) (on_board yes)
      (property "Reference" "J" (id 0) (at -2.54 -11.43 0)
        (effects (font (size 1.27 1.27)))
      )
      (property "Value" "WAGO250-208" (id 1) (at -1.27 11.43 0)
        (effects (font (size 1.27 1.27)))
      )
      (property "Footprint" "awesome:WAGO 250-208" (id 2) (at -2.54 13.97 0)
        (effects (font (size 1.27 1.27)) hide)
      )
      (property "Datasheet" "https://cdn-reichelt.de/documents/datenblatt/C151/WAGO250-20X.pdf" (id 3) (at -2.54 -1.27 0)
        (effects (font (size 1.27 1.27)) hide)
      )
      (symbol "WAGO250-208_0_1"
        (rectangle (start -5.08 10.16) (end 0 -10.16)
          (stroke (width 0) (type default) (color 0 0 0 0))
          (fill (type background))
        )
      )
      (symbol "WAGO250-208_1_1"
        (pin passive line (at 2.54 8.89 180) (length 2.54)
          (name "1" (effects (font (size 1.27 1.27))))
          (number "1" (effects (font (size 1.27 1.27))))
        )
        (pin passive line (at 2.54 6.35 180) (length 2.54)
          (name "2" (effects (font (size 1.27 1.27))))
          (number "2" (effects (font (size 1.27 1.27))))
        )
        (pin passive line (at 2.54 3.81 180) (length 2.54)
          (name "3" (effects (font (size 1.27 1.27))))
          (number "3" (effects (font (size 1.27 1.27))))
        )
        (pin passive line (at 2.54 1.27 180) (length 2.54)
          (name "4" (effects (font (size 1.27 1.27))))
          (number "4" (effects (font (size 1.27 1.27))))
        )
        (pin passive line (at 2.54 -1.27 180) (length 2.54)
          (name "5" (effects (font (size 1.27 1.27))))
          (number "5" (effects (font (size 1.27 1.27))))
        )
        (pin passive line (at 2.54 -3.81 180) (length 2.54)
          (name "6" (effects (font (size 1.27 1.27))))
          (number "6" (effects (font (size 1.27 1.27))))
        )
        (pin passive line (at 2.54 -6.35 180) (length 2.54)
          (name "7" (effects (font (size 1.27 1.27))))
          (number "7" (effects (font (size 1.27 1.27))))
        )
        (pin passive line (at 2.54 -8.89 180) (length 2.54)
          (name "8" (effects (font (size 1.27 1.27))))
          (number "8" (effects (font (size 1.27 1.27))))
        )
      )
    )
    (symbol "power:+12V" (power) (pin_names (offset 0)) (in_bom yes) (on_board yes)
      (property "Reference" "#PWR" (id 0) (at 0 -3.81 0)
        (effects (font (size 1.27 1.27)) hide)
      )
      (property "Value" "+12V" (id 1) (at 0 3.556 0)
        (effects (font (size 1.27 1.27)))
      )
      (property "Footprint" "" (id 2) (at 0 0 0)
        (effects (font (size 1.27 1.27)) hide)
      )
      (property "Datasheet" "" (id 3) (at 0 0 0)
        (effects (font (size 1.27 1.27)) hide)
      )
      (property "ki_keywords" "power-flag" (id 4) (at 0 0 0)
        (effects (font (size 1.27 1.27)) hide)
      )
      (property "ki_description" "Power symbol creates a global label with name \"+12V\"" (id 5) (at 0 0 0)
        (effects (font (size 1.27 1.27)) hide)
      )
      (symbol "+12V_0_1"
        (polyline
          (pts
            (xy -0.762 1.27)
            (xy 0 2.54)
          )
          (stroke (width 0) (type default) (color 0 0 0 0))
          (fill (type none))
        )
        (polyline
          (pts
            (xy 0 0)
            (xy 0 2.54)
          )
          (stroke (width 0) (type default) (color 0 0 0 0))
          (fill (type none))
        )
        (polyline
          (pts
            (xy 0 2.54)
            (xy 0.762 1.27)
          )
          (stroke (width 0) (type default) (color 0 0 0 0))
          (fill (type none))
        )
      )
      (symbol "+12V_1_1"
        (pin power_in line (at 0 0 90) (length 0) hide
          (name "+12V" (effects (font (size 1.27 1.27))))
          (number "1" (effects (font (size 1.27 1.27))))
        )
      )
    )
    (symbol "power:+5V" (power) (pin_names (offset 0)) (in_bom yes) (on_board yes)
      (property "Reference" "#PWR" (id 0) (at 0 -3.81 0)
        (effects (font (size 1.27 1.27)) hide)
      )
      (property "Value" "+5V" (id 1) (at 0 3.556 0)
        (effects (font (size 1.27 1.27)))
      )
      (property "Footprint" "" (id 2) (at 0 0 0)
        (effects (font (size 1.27 1.27)) hide)
      )
      (property "Datasheet" "" (id 3) (at 0 0 0)
        (effects (font (size 1.27 1.27)) hide)
      )
      (property "ki_keywords" "power-flag" (id 4) (at 0 0 0)
        (effects (font (size 1.27 1.27)) hide)
      )
      (property "ki_description" "Power symbol creates a global label with name \"+5V\"" (id 5) (at 0 0 0)
        (effects (font (size 1.27 1.27)) hide)
      )
      (symbol "+5V_0_1"
        (polyline
          (pts
            (xy -0.762 1.27)
            (xy 0 2.54)
          )
          (stroke (width 0) (type default) (color 0 0 0 0))
          (fill (type none))
        )
        (polyline
          (pts
            (xy 0 0)
            (xy 0 2.54)
          )
          (stroke (width 0) (type default) (color 0 0 0 0))
          (fill (type none))
        )
        (polyline
          (pts
            (xy 0 2.54)
            (xy 0.762 1.27)
          )
          (stroke (width 0) (type default) (color 0 0 0 0))
          (fill (type none))
        )
      )
      (symbol "+5V_1_1"
        (pin power_in line (at 0 0 90) (length 0) hide
          (name "+5V" (effects (font (size 1.27 1.27))))
          (number "1" (effects (font (size 1.27 1.27))))
        )
      )
    )
    (symbol "power:GND" (power) (pin_names (offset 0)) (in_bom yes) (on_board yes)
      (property "Reference" "#PWR" (id 0) (at 0 -6.35 0)
        (effects (font (size 1.27 1.27)) hide)
      )
      (property "Value" "GND" (id 1) (at 0 -3.81 0)
        (effects (font (size 1.27 1.27)))
      )
      (property "Footprint" "" (id 2) (at 0 0 0)
        (effects (font (size 1.27 1.27)) hide)
      )
      (property "Datasheet" "" (id 3) (at 0 0 0)
        (effects (font (size 1.27 1.27)) hide)
      )
      (property "ki_keywords" "power-flag" (id 4) (at 0 0 0)
        (effects (font (size 1.27 1.27)) hide)
      )
      (property "ki_description" "Power symbol creates a global label with name \"GND\" , ground" (id 5) (at 0 0 0)
        (effects (font (size 1.27 1.27)) hide)
      )
      (symbol "GND_0_1"
        (polyline
          (pts
            (xy 0 0)
            (xy 0 -1.27)
            (xy 1.27 -1.27)
            (xy 0 -2.54)
            (xy -1.27 -1.27)
            (xy 0 -1.27)
          )
          (stroke (width 0) (type default) (color 0 0 0 0))
          (fill (type none))
        )
      )
      (symbol "GND_1_1"
        (pin power_in line (at 0 0 270) (length 0) hide
          (name "GND" (effects (font (size 1.27 1.27))))
          (number "1" (effects (font (size 1.27 1.27))))
        )
      )
    )
  )

  (junction (at 226.06 92.71) (diameter 0) (color 0 0 0 0)
    (uuid 15a85021-fcbf-4327-a9cb-c530b6e3eda4)
  )
  (junction (at 191.77 87.63) (diameter 0) (color 0 0 0 0)
    (uuid 204823fd-3aba-42b2-a59a-2e49fcf35c4f)
  )
  (junction (at 163.83 87.63) (diameter 0) (color 0 0 0 0)
    (uuid 2b3feb5c-aa19-49bb-af7c-3062139dd7c1)
  )
  (junction (at 191.77 80.01) (diameter 0) (color 0 0 0 0)
    (uuid 3f9fa0db-a17a-4252-8166-7fd2767ea5be)
  )
  (junction (at 209.55 90.17) (diameter 0) (color 0 0 0 0)
    (uuid 55a1c4b7-323d-493b-85e1-9602ec9fc010)
  )
  (junction (at 163.83 82.55) (diameter 0) (color 0 0 0 0)
    (uuid 56f1d089-5b52-4aa0-bc29-147e1a6ca3f2)
  )
  (junction (at 203.2 90.17) (diameter 0) (color 0 0 0 0)
    (uuid 58015098-b905-41a7-b2da-1ddfc5780b3b)
  )
  (junction (at 163.83 92.71) (diameter 0) (color 0 0 0 0)
    (uuid 620d2667-607f-42d4-a458-0cf1acff4c3e)
  )
  (junction (at 191.77 85.09) (diameter 0) (color 0 0 0 0)
    (uuid 63d8e615-1df3-4719-93b0-13d646512874)
  )
  (junction (at 163.83 80.01) (diameter 0) (color 0 0 0 0)
    (uuid 70b785d5-a49d-446c-a664-f11e398a1dc6)
  )
  (junction (at 209.55 77.47) (diameter 0) (color 0 0 0 0)
    (uuid 76765f22-13bc-49ba-8108-5f23fe5018ca)
  )
  (junction (at 191.77 90.17) (diameter 0) (color 0 0 0 0)
    (uuid 7cee1c99-6889-4669-a836-58a5c51021a6)
  )
  (junction (at 203.2 77.47) (diameter 0) (color 0 0 0 0)
    (uuid 81d61f5a-fcc9-4464-bd4d-de568e73e82e)
  )
  (junction (at 163.83 77.47) (diameter 0) (color 0 0 0 0)
    (uuid 9a8808c0-3021-49f6-bbd9-6b473173fec7)
  )
  (junction (at 163.83 74.93) (diameter 0) (color 0 0 0 0)
    (uuid a6be6861-8f89-46ff-8002-55a6f896e0f4)
  )
  (junction (at 163.83 85.09) (diameter 0) (color 0 0 0 0)
    (uuid afa8d814-b6a9-4b5c-826a-bb83c9603905)
  )
  (junction (at 163.83 90.17) (diameter 0) (color 0 0 0 0)
    (uuid b9883e6f-9e5c-46ab-9939-c4280afb7bd1)
  )
  (junction (at 226.06 74.93) (diameter 0) (color 0 0 0 0)
    (uuid bfcf0ce2-cb61-43cf-9059-421da19027b2)
  )
  (junction (at 191.77 74.93) (diameter 0) (color 0 0 0 0)
    (uuid c64db325-6597-4e66-bee6-3d66ad3e6831)
  )
  (junction (at 191.77 82.55) (diameter 0) (color 0 0 0 0)
    (uuid e8c185aa-e3e6-4dcb-9291-36c8f870727e)
  )
  (junction (at 191.77 77.47) (diameter 0) (color 0 0 0 0)
    (uuid ef1f0d75-b03a-4e73-aa2b-f609e9788820)
  )
  (junction (at 191.77 92.71) (diameter 0) (color 0 0 0 0)
    (uuid fd062a25-56d5-4f55-b84b-1a50018bdc21)
  )

  (wire (pts (xy 191.77 82.55) (xy 226.06 82.55))
    (stroke (width 0) (type default) (color 0 0 0 0))
    (uuid 0b4961a3-bc34-4cf0-9d37-802c96e3e27d)
  )
  (wire (pts (xy 148.59 74.93) (xy 163.83 74.93))
    (stroke (width 0) (type default) (color 0 0 0 0))
    (uuid 25cf0d9d-bdcd-46e9-a054-1b818aeabeca)
  )
  (wire (pts (xy 226.06 74.93) (xy 226.06 62.23))
    (stroke (width 0) (type default) (color 0 0 0 0))
    (uuid 27e688fd-2f2c-44f3-a610-77164eb09951)
  )
  (wire (pts (xy 226.06 62.23) (xy 209.55 62.23))
    (stroke (width 0) (type default) (color 0 0 0 0))
    (uuid 335895a8-084c-49c7-8db1-a03dea8a2c9f)
  )
  (wire (pts (xy 148.59 87.63) (xy 163.83 87.63))
    (stroke (width 0) (type default) (color 0 0 0 0))
    (uuid 3568f9aa-0091-4162-8e41-e2bc48c495e4)
  )
  (wire (pts (xy 148.59 82.55) (xy 163.83 82.55))
    (stroke (width 0) (type default) (color 0 0 0 0))
    (uuid 381180ee-f15e-49ae-9034-65d39409ab9f)
  )
  (wire (pts (xy 163.83 92.71) (xy 191.77 92.71))
    (stroke (width 0) (type default) (color 0 0 0 0))
    (uuid 3861b151-87bf-4d6f-ab7a-d38763b69839)
  )
  (wire (pts (xy 226.06 90.17) (xy 209.55 90.17))
    (stroke (width 0) (type default) (color 0 0 0 0))
    (uuid 3d237072-7be1-438e-9775-078db00bbbe5)
  )
  (wire (pts (xy 163.83 74.93) (xy 191.77 74.93))
    (stroke (width 0) (type default) (color 0 0 0 0))
    (uuid 4346496d-a104-47b0-bc94-bf905855a396)
  )
  (wire (pts (xy 163.83 80.01) (xy 148.59 80.01))
    (stroke (width 0) (type default) (color 0 0 0 0))
    (uuid 465ce206-e507-4364-bfa5-568f49889eea)
  )
  (wire (pts (xy 209.55 90.17) (xy 203.2 90.17))
    (stroke (width 0) (type default) (color 0 0 0 0))
    (uuid 4fdc0235-13eb-42ad-9b0d-eef11ec60909)
  )
  (wire (pts (xy 191.77 77.47) (xy 203.2 77.47))
    (stroke (width 0) (type default) (color 0 0 0 0))
    (uuid 61c30b9c-8f4c-4912-8ef7-be1a4df8bedb)
  )
  (wire (pts (xy 191.77 80.01) (xy 163.83 80.01))
    (stroke (width 0) (type default) (color 0 0 0 0))
    (uuid 63221749-a972-4497-a118-742739b8bd5d)
  )
  (wire (pts (xy 203.2 90.17) (xy 191.77 90.17))
    (stroke (width 0) (type default) (color 0 0 0 0))
    (uuid 659c0849-2830-48d2-98f7-e1d4ee892e6f)
  )
  (wire (pts (xy 226.06 80.01) (xy 191.77 80.01))
    (stroke (width 0) (type default) (color 0 0 0 0))
    (uuid 6de10d06-9b54-43e2-bfc0-0f73fafb385f)
  )
  (wire (pts (xy 209.55 105.41) (xy 226.06 105.41))
    (stroke (width 0) (type default) (color 0 0 0 0))
    (uuid 73a05cda-0b23-4021-b0c1-9dbb4a3a9c4e)
  )
  (wire (pts (xy 191.77 90.17) (xy 163.83 90.17))
    (stroke (width 0) (type default) (color 0 0 0 0))
    (uuid 78d48699-2bad-4230-b380-2c126e340ea9)
  )
  (wire (pts (xy 191.77 74.93) (xy 226.06 74.93))
    (stroke (width 0) (type default) (color 0 0 0 0))
    (uuid 7cd5c0a5-f83f-4689-90f5-005a5fb9036c)
  )
  (wire (pts (xy 209.55 77.47) (xy 226.06 77.47))
    (stroke (width 0) (type default) (color 0 0 0 0))
    (uuid 8afc9164-021f-4cd7-b6be-d04b35a73512)
  )
  (wire (pts (xy 163.83 85.09) (xy 148.59 85.09))
    (stroke (width 0) (type default) (color 0 0 0 0))
    (uuid 8f6eeffc-0175-4dcd-9143-42962bb59019)
  )
  (wire (pts (xy 163.83 90.17) (xy 148.59 90.17))
    (stroke (width 0) (type default) (color 0 0 0 0))
    (uuid 937739b9-6982-462a-a36b-23148b1c7b40)
  )
  (wire (pts (xy 191.77 92.71) (xy 226.06 92.71))
    (stroke (width 0) (type default) (color 0 0 0 0))
    (uuid 9ef53e70-20e8-4dac-b09f-8b25399e135d)
  )
  (wire (pts (xy 163.83 87.63) (xy 191.77 87.63))
    (stroke (width 0) (type default) (color 0 0 0 0))
    (uuid a4295f46-61d2-4566-91dd-5d927a8a5b1b)
  )
  (wire (pts (xy 163.83 82.55) (xy 191.77 82.55))
    (stroke (width 0) (type default) (color 0 0 0 0))
    (uuid bebfea3e-0698-4be3-ae73-8a6e0229ebde)
  )
  (wire (pts (xy 226.06 85.09) (xy 191.77 85.09))
    (stroke (width 0) (type default) (color 0 0 0 0))
    (uuid c91398c8-2956-4a8d-96b2-dccb3e8c3322)
  )
  (wire (pts (xy 148.59 92.71) (xy 163.83 92.71))
    (stroke (width 0) (type default) (color 0 0 0 0))
    (uuid ca7fd198-2e6f-4604-9130-0ea3db009a8f)
  )
  (wire (pts (xy 203.2 77.47) (xy 209.55 77.47))
    (stroke (width 0) (type default) (color 0 0 0 0))
    (uuid d88e117a-6401-421a-b6af-bcdfda515c48)
  )
  (wire (pts (xy 191.77 85.09) (xy 163.83 85.09))
    (stroke (width 0) (type default) (color 0 0 0 0))
    (uuid dc3c1a65-abb9-4416-81d9-8be4ab3fa89f)
  )
  (wire (pts (xy 226.06 105.41) (xy 226.06 92.71))
    (stroke (width 0) (type default) (color 0 0 0 0))
    (uuid dc573549-edee-47c3-90e0-b2c844cc5d2a)
  )
  (wire (pts (xy 191.77 87.63) (xy 226.06 87.63))
    (stroke (width 0) (type default) (color 0 0 0 0))
    (uuid e14b6497-b3ae-45a2-a506-c0c47f60fafa)
  )
  (wire (pts (xy 163.83 77.47) (xy 191.77 77.47))
    (stroke (width 0) (type default) (color 0 0 0 0))
    (uuid ee8ec6f1-bcf8-4ceb-a11a-c3c21278c729)
  )
  (wire (pts (xy 163.83 77.47) (xy 148.59 77.47))
    (stroke (width 0) (type default) (color 0 0 0 0))
    (uuid f00ab531-9353-4091-a950-8f8f5d4387e9)
  )

  (label "CANL-" (at 217.17 82.55 0)
    (effects (font (size 1.27 1.27)) (justify left bottom))
    (uuid 169e0d16-e76c-49f5-9e13-b70c11eb8b72)
  )
  (label "CANL+" (at 217.17 80.01 0)
    (effects (font (size 1.27 1.27)) (justify left bottom))
    (uuid 39c5757b-55b8-4046-9539-14319f17410c)
  )
  (label "GND5V" (at 217.17 92.71 0)
    (effects (font (size 1.27 1.27)) (justify left bottom))
    (uuid 72dc3ca5-b353-4dfd-97e5-7eee95bdf761)
  )
  (label "GND12V" (at 217.17 74.93 0)
    (effects (font (size 1.27 1.27)) (justify left bottom))
    (uuid 9935f7a3-fdcb-4791-9763-4d085aedc29a)
  )
  (label "CANH+" (at 217.17 87.63 0)
    (effects (font (size 1.27 1.27)) (justify left bottom))
    (uuid c8fee70a-968e-4b88-9705-0b23b5ec34c1)
  )
  (label "CANH-" (at 217.17 85.09 0)
    (effects (font (size 1.27 1.27)) (justify left bottom))
    (uuid ce20a99d-7725-47b1-a4a9-0731479c98bc)
  )

  (symbol (lib_id "awesome:RJ45-CAN") (at 236.22 83.82 0) (unit 1)
    (in_bom yes) (on_board yes)
    (uuid 00000000-0000-0000-0000-000060700aa1)
    (property "Reference" "J3" (id 0) (at 244.602 82.6516 0)
      (effects (font (size 1.27 1.27)) (justify left))
    )
    (property "Value" "" (id 1) (at 244.602 84.963 0)
      (effects (font (size 1.27 1.27)) (justify left))
    )
    (property "Footprint" "" (id 2) (at 236.22 83.185 90)
      (effects (font (size 1.27 1.27)) hide)
    )
    (property "Datasheet" "~" (id 3) (at 236.22 83.185 90)
      (effects (font (size 1.27 1.27)) hide)
    )
    (pin "1" (uuid 1770bf82-310a-49a3-8898-406fc1dc07f1))
    (pin "2" (uuid 6e953f5f-12bb-4535-9c0a-7d64134274be))
    (pin "3" (uuid b67e5652-d458-4be9-8c22-970fb7a492d1))
    (pin "4" (uuid 9fda5cc2-7220-4b50-9d48-e0e3dda223fb))
    (pin "5" (uuid 5032f7ad-ceb7-4dad-96b1-cfdcccbce81b))
    (pin "6" (uuid d6882453-5beb-49ee-a621-f15cf1aa4831))
    (pin "7" (uuid 584b9a76-f744-4eda-8315-c45a17f643ca))
    (pin "8" (uuid 0f508bb4-b237-4f54-8abf-02474dedc7e1))
  )

  (symbol (lib_id "Connector:Conn_01x08_Male") (at 186.69 82.55 0) (unit 1)
    (in_bom yes) (on_board yes)
    (uuid 00000000-0000-0000-0000-000060701f09)
    (property "Reference" "J2" (id 0) (at 189.4332 70.3326 0))
    (property "Value" "" (id 1) (at 189.4332 72.644 0))
    (property "Footprint" "" (id 2) (at 186.69 82.55 0)
      (effects (font (size 1.27 1.27)) hide)
    )
    (property "Datasheet" "~" (id 3) (at 186.69 82.55 0)
      (effects (font (size 1.27 1.27)) hide)
    )
    (pin "1" (uuid c262b04d-1ce1-4751-a4ce-c177693f5110))
    (pin "2" (uuid 0d5f2023-a94a-4f40-a0f2-46c15b8c315d))
    (pin "3" (uuid 62bb4464-e050-411f-af63-5addd2ac7245))
    (pin "4" (uuid e45cd26b-ed0a-4f03-941d-cb5b2e2ed1c5))
    (pin "5" (uuid ba783e2e-7e22-46a8-b22e-8adbdb99002b))
    (pin "6" (uuid a157be47-4256-43f3-b05d-176c70301e04))
    (pin "7" (uuid 62a8862d-51d5-4226-8e2c-65ea43c43520))
    (pin "8" (uuid 740801e4-17f2-4c7a-8e5a-c105ae8167bf))
  )

  (symbol (lib_id "awesome:WAGO250-208") (at 161.29 83.82 0) (unit 1)
    (in_bom yes) (on_board yes)
    (uuid 00000000-0000-0000-0000-000060702b2b)
    (property "Reference" "J1" (id 0) (at 160.2232 66.929 0))
    (property "Value" "" (id 1) (at 160.2232 69.2404 0))
    (property "Footprint" "" (id 2) (at 160.2232 71.5518 0))
    (property "Datasheet" "https://cdn-reichelt.de/documents/datenblatt/C151/WAGO250-20X.pdf" (id 3) (at 158.75 85.09 0)
      (effects (font (size 1.27 1.27)) hide)
    )
    (pin "1" (uuid 82ed8f87-bc77-4059-a738-e3d755c80061))
    (pin "2" (uuid 4af9c7ec-fc86-4d59-aada-f5da1ac9b100))
    (pin "3" (uuid 61b00653-60fb-4772-b13f-936fb44d7541))
    (pin "4" (uuid 3790d659-9351-4628-b622-50a8b7375465))
    (pin "5" (uuid cdcdee47-b697-470b-b333-55c869cc215e))
    (pin "6" (uuid 637bb996-5b77-4ab1-b4ab-0caa45c5e6ad))
    (pin "7" (uuid 564c0dbf-2333-41fb-87b7-b2f9a375f25c))
    (pin "8" (uuid 55b27732-2d48-4af0-8c71-91cd183be782))
  )

  (symbol (lib_id "Device:LED") (at 209.55 73.66 270) (unit 1)
    (in_bom yes) (on_board yes)
    (uuid 00000000-0000-0000-0000-000060705bb4)
    (property "Reference" "D1" (id 0) (at 211.582 72.3138 90)
      (effects (font (size 1.27 1.27)) (justify left))
    )
    (property "Value" "" (id 1) (at 211.582 74.6252 90)
      (effects (font (size 1.27 1.27)) (justify left))
    )
    (property "Footprint" "" (id 2) (at 209.55 73.66 0)
      (effects (font (size 1.27 1.27)) hide)
    )
    (property "Datasheet" "~" (id 3) (at 209.55 73.66 0)
      (effects (font (size 1.27 1.27)) hide)
    )
    (pin "1" (uuid 3907ba2b-a961-454f-b87a-05cebc5bf2ca))
    (pin "2" (uuid ae0bb43a-dec3-4f9b-88e9-3e2dc8e4f97e))
  )

  (symbol (lib_id "Device:LED") (at 209.55 93.98 90) (unit 1)
    (in_bom yes) (on_board yes)
    (uuid 00000000-0000-0000-0000-000060706748)
    (property "Reference" "D2" (id 0) (at 212.5472 92.9894 90)
      (effects (font (size 1.27 1.27)) (justify right))
    )
    (property "Value" "" (id 1) (at 212.5472 95.3008 90)
      (effects (font (size 1.27 1.27)) (justify right))
    )
    (property "Footprint" "" (id 2) (at 209.55 93.98 0)
      (effects (font (size 1.27 1.27)) hide)
    )
    (property "Datasheet" "~" (id 3) (at 209.55 93.98 0)
      (effects (font (size 1.27 1.27)) hide)
    )
    (pin "1" (uuid cc2689d0-4446-46c5-832e-11f32bc2af47))
    (pin "2" (uuid ff31c37d-e0cb-472c-92cc-c1b99df860ba))
  )

  (symbol (lib_id "Device:R") (at 209.55 66.04 0) (unit 1)
    (in_bom yes) (on_board yes)
    (uuid 00000000-0000-0000-0000-0000607070eb)
    (property "Reference" "R1" (id 0) (at 211.328 64.8716 0)
      (effects (font (size 1.27 1.27)) (justify left))
    )
    (property "Value" "" (id 1) (at 211.328 67.183 0)
      (effects (font (size 1.27 1.27)) (justify left))
    )
    (property "Footprint" "" (id 2) (at 207.772 66.04 90)
      (effects (font (size 1.27 1.27)) hide)
    )
    (property "Datasheet" "~" (id 3) (at 209.55 66.04 0)
      (effects (font (size 1.27 1.27)) hide)
    )
    (pin "1" (uuid 26471bd0-bb10-42af-8d52-b226e797a1ec))
    (pin "2" (uuid 145e780d-2f69-4f46-84ed-5db87bce5b78))
  )

  (symbol (lib_id "Device:R") (at 209.55 101.6 0) (unit 1)
    (in_bom yes) (on_board yes)
    (uuid 00000000-0000-0000-0000-0000607073c7)
    (property "Reference" "R2" (id 0) (at 211.328 100.4316 0)
      (effects (font (size 1.27 1.27)) (justify left))
    )
    (property "Value" "" (id 1) (at 211.328 102.743 0)
      (effects (font (size 1.27 1.27)) (justify left))
    )
    (property "Footprint" "" (id 2) (at 207.772 101.6 90)
      (effects (font (size 1.27 1.27)) hide)
    )
    (property "Datasheet" "~" (id 3) (at 209.55 101.6 0)
      (effects (font (size 1.27 1.27)) hide)
    )
    (pin "1" (uuid 0fd0c49d-14c7-4ec8-86df-1d369b2b003c))
    (pin "2" (uuid b587c5e4-485e-4cc1-9674-0cb2fc8ce9a1))
  )

  (symbol (lib_id "awesome:RJ45-CAN") (at 138.43 83.82 0) (mirror y) (unit 1)
    (in_bom yes) (on_board yes)
    (uuid 00000000-0000-0000-0000-00006070ac3f)
    (property "Reference" "J4" (id 0) (at 130.048 82.6516 0)
      (effects (font (size 1.27 1.27)) (justify left))
    )
    (property "Value" "" (id 1) (at 130.048 84.963 0)
      (effects (font (size 1.27 1.27)) (justify left))
    )
    (property "Footprint" "" (id 2) (at 138.43 83.185 90)
      (effects (font (size 1.27 1.27)) hide)
    )
    (property "Datasheet" "~" (id 3) (at 138.43 83.185 90)
      (effects (font (size 1.27 1.27)) hide)
    )
    (pin "1" (uuid fefccdee-0ee0-4f67-a0a5-1eea8237a18a))
    (pin "2" (uuid 40325029-9434-4e8a-974e-b94114c33359))
    (pin "3" (uuid a5ce877d-fde3-43a7-8517-d9b42b5feb12))
    (pin "4" (uuid 12859ce3-8826-4745-a987-30be6a1debf1))
    (pin "5" (uuid e4ef8554-8d6a-404d-a1cf-6a42bb7f33b7))
    (pin "6" (uuid b76115ed-ac2f-4ecd-a95f-3e753116b2db))
    (pin "7" (uuid 1ce7893e-a052-4fe7-a236-4e9c193a1aa7))
    (pin "8" (uuid f8997125-0546-47b2-8766-0a5c20b1868e))
  )

  (symbol (lib_id "power:+5V") (at 203.2 90.17 90) (unit 1)
    (in_bom yes) (on_board yes)
    (uuid 00000000-0000-0000-0000-00006070ec13)
    (property "Reference" "#PWR0101" (id 0) (at 207.01 90.17 0)
      (effects (font (size 1.27 1.27)) hide)
    )
    (property "Value" "" (id 1) (at 199.9488 89.789 90)
      (effects (font (size 1.27 1.27)) (justify left))
    )
    (property "Footprint" "" (id 2) (at 203.2 90.17 0)
      (effects (font (size 1.27 1.27)) hide)
    )
    (property "Datasheet" "" (id 3) (at 203.2 90.17 0)
      (effects (font (size 1.27 1.27)) hide)
    )
    (pin "1" (uuid 30c414c9-27c9-4d58-961b-0b7872303bd8))
  )

  (symbol (lib_id "power:+12V") (at 203.2 77.47 90) (unit 1)
    (in_bom yes) (on_board yes)
    (uuid 00000000-0000-0000-0000-00006070f6cf)
    (property "Reference" "#PWR0102" (id 0) (at 207.01 77.47 0)
      (effects (font (size 1.27 1.27)) hide)
    )
    (property "Value" "" (id 1) (at 199.9488 77.089 90)
      (effects (font (size 1.27 1.27)) (justify left))
    )
    (property "Footprint" "" (id 2) (at 203.2 77.47 0)
      (effects (font (size 1.27 1.27)) hide)
    )
    (property "Datasheet" "" (id 3) (at 203.2 77.47 0)
      (effects (font (size 1.27 1.27)) hide)
    )
    (pin "1" (uuid 759039da-55fc-4c57-b0e3-fe605b75e57d))
  )

  (symbol (lib_id "Mechanical:MountingHole") (at 222.25 52.07 0) (unit 1)
    (in_bom yes) (on_board yes)
    (uuid 00000000-0000-0000-0000-000060712d02)
    (property "Reference" "H1" (id 0) (at 224.79 50.9016 0)
      (effects (font (size 1.27 1.27)) (justify left))
    )
    (property "Value" "" (id 1) (at 224.79 53.213 0)
      (effects (font (size 1.27 1.27)) (justify left))
    )
    (property "Footprint" "" (id 2) (at 222.25 52.07 0)
      (effects (font (size 1.27 1.27)) hide)
    )
    (property "Datasheet" "~" (id 3) (at 222.25 52.07 0)
      (effects (font (size 1.27 1.27)) hide)
    )
  )

  (symbol (lib_id "Mechanical:MountingHole") (at 237.49 52.07 0) (unit 1)
    (in_bom yes) (on_board yes)
    (uuid 00000000-0000-0000-0000-000060712f9d)
    (property "Reference" "H2" (id 0) (at 240.03 50.9016 0)
      (effects (font (size 1.27 1.27)) (justify left))
    )
    (property "Value" "" (id 1) (at 240.03 53.213 0)
      (effects (font (size 1.27 1.27)) (justify left))
    )
    (property "Footprint" "" (id 2) (at 237.49 52.07 0)
      (effects (font (size 1.27 1.27)) hide)
    )
    (property "Datasheet" "~" (id 3) (at 237.49 52.07 0)
      (effects (font (size 1.27 1.27)) hide)
    )
  )

  (symbol (lib_id "power:GND") (at 205.74 50.8 180) (unit 1)
    (in_bom yes) (on_board yes)
    (uuid 00000000-0000-0000-0000-000060716e18)
    (property "Reference" "#PWR01" (id 0) (at 205.74 44.45 0)
      (effects (font (size 1.27 1.27)) hide)
    )
    (property "Value" "" (id 1) (at 205.613 46.4058 0))
    (property "Footprint" "" (id 2) (at 205.74 50.8 0)
      (effects (font (size 1.27 1.27)) hide)
    )
    (property "Datasheet" "" (id 3) (at 205.74 50.8 0)
      (effects (font (size 1.27 1.27)) hide)
    )
    (pin "1" (uuid b4798ccc-a306-407d-8ffb-f91960a24c44))
  )

  (symbol (lib_id "Mechanical:MountingHole") (at 222.25 41.91 0) (unit 1)
    (in_bom yes) (on_board yes)
    (uuid 00000000-0000-0000-0000-00006071cba0)
    (property "Reference" "H3" (id 0) (at 224.79 40.7416 0)
      (effects (font (size 1.27 1.27)) (justify left))
    )
    (property "Value" "" (id 1) (at 224.79 43.053 0)
      (effects (font (size 1.27 1.27)) (justify left))
    )
    (property "Footprint" "" (id 2) (at 222.25 41.91 0)
      (effects (font (size 1.27 1.27)) hide)
    )
    (property "Datasheet" "~" (id 3) (at 222.25 41.91 0)
      (effects (font (size 1.27 1.27)) hide)
    )
  )

  (symbol (lib_id "Mechanical:MountingHole") (at 237.49 41.91 0) (unit 1)
    (in_bom yes) (on_board yes)
    (uuid 00000000-0000-0000-0000-00006071cf24)
    (property "Reference" "H4" (id 0) (at 240.03 40.7416 0)
      (effects (font (size 1.27 1.27)) (justify left))
    )
    (property "Value" "" (id 1) (at 240.03 43.053 0)
      (effects (font (size 1.27 1.27)) (justify left))
    )
    (property "Footprint" "" (id 2) (at 237.49 41.91 0)
      (effects (font (size 1.27 1.27)) hide)
    )
    (property "Datasheet" "~" (id 3) (at 237.49 41.91 0)
      (effects (font (size 1.27 1.27)) hide)
    )
  )

  (sheet_instances
    (path "/" (page "1"))
  )

  (symbol_instances
    (path "/00000000-0000-0000-0000-000060716e18"
      (reference "#PWR01") (unit 1) (value "GND") (footprint "")
    )
    (path "/00000000-0000-0000-0000-00006070ec13"
      (reference "#PWR0101") (unit 1) (value "+5V") (footprint "")
    )
    (path "/00000000-0000-0000-0000-00006070f6cf"
      (reference "#PWR0102") (unit 1) (value "+12V") (footprint "")
    )
    (path "/00000000-0000-0000-0000-000060705bb4"
      (reference "D1") (unit 1) (value "LED") (footprint "LED_SMD:LED_0603_1608Metric_Pad1.05x0.95mm_HandSolder")
    )
    (path "/00000000-0000-0000-0000-000060706748"
      (reference "D2") (unit 1) (value "LED") (footprint "LED_SMD:LED_0603_1608Metric_Pad1.05x0.95mm_HandSolder")
    )
    (path "/00000000-0000-0000-0000-000060712d02"
      (reference "H1") (unit 1) (value "MountingHole") (footprint "MountingHole:MountingHole_3.2mm_M3_DIN965")
    )
    (path "/00000000-0000-0000-0000-000060712f9d"
      (reference "H2") (unit 1) (value "MountingHole") (footprint "MountingHole:MountingHole_3.2mm_M3_DIN965")
    )
    (path "/00000000-0000-0000-0000-00006071cba0"
      (reference "H3") (unit 1) (value "MountingHole") (footprint "MountingHole:MountingHole_3.2mm_M3_DIN965")
    )
    (path "/00000000-0000-0000-0000-00006071cf24"
      (reference "H4") (unit 1) (value "MountingHole") (footprint "MountingHole:MountingHole_3.2mm_M3_DIN965")
    )
    (path "/00000000-0000-0000-0000-000060702b2b"
      (reference "J1") (unit 1) (value "WAGO250-208") (footprint "awesome:WAGO250-208")
    )
    (path "/00000000-0000-0000-0000-000060701f09"
      (reference "J2") (unit 1) (value "Conn_01x08_Male") (footprint "Connector_PinHeader_2.54mm:PinHeader_1x08_P2.54mm_Vertical")
    )
    (path "/00000000-0000-0000-0000-000060700aa1"
      (reference "J3") (unit 1) (value "RJ45-CAN") (footprint "Connector_RJ:RJ45_OST_PJ012-8P8CX_Vertical")
    )
    (path "/00000000-0000-0000-0000-00006070ac3f"
      (reference "J4") (unit 1) (value "RJ45-CAN") (footprint "Connector_RJ:RJ45_OST_PJ012-8P8CX_Vertical")
    )
    (path "/00000000-0000-0000-0000-0000607070eb"
      (reference "R1") (unit 1) (value "R") (footprint "Resistor_SMD:R_0603_1608Metric_Pad0.98x0.95mm_HandSolder")
    )
    (path "/00000000-0000-0000-0000-0000607073c7"
      (reference "R2") (unit 1) (value "R") (footprint "Resistor_SMD:R_0603_1608Metric_Pad0.98x0.95mm_HandSolder")
    )
  )
)
